lab05/projeto/simulation/qsim/FREQ_DIV.msim.vcd
$comment
	File created using the following command:
		vcd file FREQ_DIV.msim.vcd -direction
$end
$date
	Thu Dec 07 22:39:11 2023
$end
$version
	ModelSim Version 10.1d
$end
$timescale
	1ps
$end
$scope module FREQ_DIV_vlg_vec_tst $end
$var reg 1 ! IN $end
$var reg 1 " RST $end
$var wire 1 # OUT $end
$var wire 1 $ sampler $end
$scope module i1 $end
$var wire 1 % gnd $end
$var wire 1 & vcc $end
$var wire 1 ' unknown $end
$var tri1 1 ( devclrn $end
$var tri1 1 ) devpor $end
$var tri1 1 * devoe $end
$var wire 1 + FFD21~q $end
$var wire 1 , FFD20~q $end
$var wire 1 - FFD19~q $end
$var wire 1 . FFD18~q $end
$var wire 1 / FFD17~q $end
$var wire 1 0 FFD16~q $end
$var wire 1 1 FFD15~q $end
$var wire 1 2 FFD14~q $end
$var wire 1 3 FFD13~q $end
$var wire 1 4 FFD12~q $end
$var wire 1 5 FFD11~q $end
$var wire 1 6 FFD10~q $end
$var wire 1 7 FFD9~q $end
$var wire 1 8 FFD8~q $end
$var wire 1 9 FFD7~q $end
$var wire 1 : FFD6~q $end
$var wire 1 ; FFD5~q $end
$var wire 1 < FFD4~q $end
$var wire 1 = FFD3~q $end
$var wire 1 > FFD2~q $end
$var wire 1 ? FFD1~q $end
$var wire 1 @ FFD0~q $end
$var wire 1 A FFD21~0_combout $end
$var wire 1 B FFD20~0_combout $end
$var wire 1 C FFD19~0_combout $end
$var wire 1 D FFD18~0_combout $end
$var wire 1 E FFD17~0_combout $end
$var wire 1 F FFD16~0_combout $end
$var wire 1 G FFD15~0_combout $end
$var wire 1 H FFD14~0_combout $end
$var wire 1 I FFD13~0_combout $end
$var wire 1 J FFD12~0_combout $end
$var wire 1 K FFD11~0_combout $end
$var wire 1 L FFD10~0_combout $end
$var wire 1 M FFD9~0_combout $end
$var wire 1 N FFD8~0_combout $end
$var wire 1 O FFD7~0_combout $end
$var wire 1 P FFD6~0_combout $end
$var wire 1 Q FFD5~0_combout $end
$var wire 1 R FFD4~0_combout $end
$var wire 1 S FFD3~0_combout $end
$var wire 1 T FFD2~0_combout $end
$var wire 1 U FFD1~0_combout $end
$var wire 1 V FFD0~0_combout $end
$var wire 1 W IN~input_o $end
$var wire 1 X FFD21~feeder_combout $end
$var wire 1 Y FFD20~feeder_combout $end
$var wire 1 Z FFD18~feeder_combout $end
$var wire 1 [ FFD16~feeder_combout $end
$var wire 1 \ FFD14~feeder_combout $end
$var wire 1 ] FFD12~feeder_combout $end
$var wire 1 ^ FFD11~feeder_combout $end
$var wire 1 _ FFD10~feeder_combout $end
$var wire 1 ` FFD8~feeder_combout $end
$var wire 1 a FFD6~feeder_combout $end
$var wire 1 b FFD4~feeder_combout $end
$var wire 1 c FFD2~feeder_combout $end
$var wire 1 d FFD0~feeder_combout $end
$var wire 1 e OUT~output_o $end
$var wire 1 f FFD22~0_combout $end
$var wire 1 g FFD22~feeder_combout $end
$var wire 1 h RST~input_o $end
$var wire 1 i RST~inputclkctrl_outclk $end
$var wire 1 j FFD22~q $end
$var wire 1 k FFD23~0_combout $end
$var wire 1 l FFD23~q $end
$upscope $end
$upscope $end
$enddefinitions $end
#0
$dumpvars
0!
0"
x#
x$
0%
1&
x'
1(
1)
1*
0+
0,
0-
0.
0/
00
01
02
03
04
05
06
07
08
09
0:
0;
0<
0=
0>
0?
0@
xA
xB
xC
xD
xE
xF
xG
xH
xI
xJ
xK
xL
xM
xN
xO
xP
xQ
xR
xS
xT
xU
xV
0W
xX
xY
xZ
x[
x\
x]
x^
x_
x`
xa
xb
xc
xd
xe
xf
xg
0h
xi
0j
1k
0l
$end
#145
0i
#554
1G
1S
#555
1Q
1A
#558
1E
#565
1O
#681
1P
#682
1R
#714
1D
1F
#715
1H
1T
#716
1N
1f
#717
1B
1J
#724
1K
#728
1C
1I
1M
1U
#854
1L
#1112
1X
#1235
1a
#1239
1b
#1270
1g
1`
1c
1\
1[
1Z
#1274
1]
#1275
1Y
#1280
1^
#1282
1V
#1587
1_
#2437
1d
#2831
0e
0#
#20000
1!
0$
#20699
1W
#40000
0!
1$
#40862
0W
#60000
1!
0$
#60699
1W
#80000
0!
1$
#80862
0W
#100000
1!
0$
#100699
1W
#120000
0!
1$
#120862
0W
#140000
1!
0$
#140699
1W
#160000
0!
1$
#160862
0W
#180000
1!
0$
#180699
1W
#200000
0!
1$
#200862
0W
#220000
1!
0$
#220699
1W
#240000
0!
1$
#240862
0W
#260000
1!
0$
#260699
1W
#280000
0!
1$
#280862
0W
#300000
1!
0$
#300699
1W
#320000
0!
1$
#320862
0W
#340000
1!
0$
#340699
1W
#360000
0!
1$
#360862
0W
#380000
1!
0$
#380699
1W
#400000
0!
1$
#400862
0W
#420000
1!
0$
#420699
1W
#440000
0!
1$
#440862
0W
#460000
1!
0$
#460699
1W
#480000
0!
1$
#480862
0W
#500000
1!
0$
#500699
1W
#520000
0!
1$
#520862
0W
#540000
1!
0$
#540699
1W
#560000
0!
1$
#560862
0W
#580000
1!
0$
#580699
1W
#600000
0!
1$
#600862
0W
#620000
1!
0$
#620699
1W
#640000
1"
0!
1$
#640775
1h
#640862
0W
#640938
1i
#660000
1!
0$
#660699
1W
#662183
1@
#663183
1?
#663416
0V
#663827
0U
#664296
1>
#664597
0d
#664926
0T
#665283
1=
#665535
0c
#665760
0S
#666642
1<
#667264
0R
#667641
1;
#667875
0b
#668119
0Q
#668960
1:
#669578
0P
#669959
19
#670185
0a
#670456
0O
#671291
18
#671923
0N
#672277
17
#672530
0`
#672921
0M
#673843
16
#674627
0L
#674843
15
#675420
0_
#675485
0K
#675995
14
#676097
0^
#676625
0J
#676983
13
#677239
0]
#677627
0I
#678096
12
#678726
0H
#679083
11
#679335
0\
#679560
0G
#680000
0!
1$
#680221
10
#680850
0F
#680862
0W
#681208
1/
#681464
0[
#681689
0E
#682343
1.
#682972
0D
#683330
1-
#683586
0Z
#683975
0C
#684478
1,
#685109
0B
#685465
1+
#685725
0Y
#685949
0A
#686562
0X
#686591
1j
#687223
0f
#687577
1l
#687830
0g
#687946
0k
#690410
1e
1#
#700000
1!
0$
#700699
1W
#702183
0@
#703465
1V
#704620
1d
#720000
0!
1$
#720862
0W
#740000
1!
0$
#740699
1W
#742183
1@
#743183
0?
#743416
0V
#743911
1U
#744597
0d
#760000
0!
1$
#760862
0W
#780000
1!
0$
#780699
1W
#782183
0@
#783465
1V
#784620
1d
#800000
0!
1$
#800862
0W
#820000
1!
0$
#820699
1W
#822183
1@
#823183
1?
#823416
0V
#823827
0U
#824296
0>
#824597
0d
#825011
1T
#825566
1c
#840000
0!
1$
#840862
0W
#860000
1!
0$
#860699
1W
#862183
0@
#863465
1V
#864620
1d
#880000
0!
1$
#880862
0W
#900000
1!
0$
#900699
1W
#902183
1@
#903183
0?
#903416
0V
#903911
1U
#904597
0d
#920000
0!
1$
#920862
0W
#940000
1!
0$
#940699
1W
#942183
0@
#943465
1V
#944620
1d
#960000
0!
1$
#960862
0W
#980000
1!
0$
#980699
1W
#982183
1@
#983183
1?
#983416
0V
#983827
0U
#984296
1>
#984597
0d
#984926
0T
#985283
0=
#985535
0c
#985837
1S
#1000000
0!
1$
#1000862
0W
#1020000
1!
0$
#1020699
1W
#1022183
0@
#1023465
1V
#1024620
1d
#1040000
0!
1$
#1040862
0W
#1060000
1!
0$
#1060699
1W
#1062183
1@
#1063183
0?
#1063416
0V
#1063911
1U
#1064597
0d
#1080000
0!
1$
#1080862
0W
#1100000
1!
0$
#1100699
1W
#1102183
0@
#1103465
1V
#1104620
1d
#1120000
0!
1$
#1120862
0W
#1140000
1!
0$
#1140699
1W
#1142183
1@
#1143183
1?
#1143416
0V
#1143827
0U
#1144296
0>
#1144597
0d
#1145011
1T
#1145566
1c
#1160000
0!
1$
#1160862
0W
#1180000
1!
0$
#1180699
1W
#1182183
0@
#1183465
1V
#1184620
1d
#1200000
0!
1$
#1200862
0W
#1220000
1!
0$
#1220699
1W
#1222183
1@
#1223183
0?
#1223416
0V
#1223911
1U
#1224597
0d
#1240000
0!
1$
#1240862
0W
#1260000
1!
0$
#1260699
1W
#1262183
0@
#1263465
1V
#1264620
1d
#1280000
0!
1$
#1280862
0W
#1300000
1!
0$
#1300699
1W
#1302183
1@
#1303183
1?
#1303416
0V
#1303827
0U
#1304296
1>
#1304597
0d
#1304926
0T
#1305283
1=
#1305535
0c
#1305760
0S
#1306642
0<
#1307324
1R
#1307881
1b
#1320000
0!
1$
#1320862
0W
#1340000
1!
0$
#1340699
1W
#1342183
0@
#1343465
1V
#1344620
1d
#1360000
0!
1$
#1360862
0W
#1380000
1!
0$
#1380699
1W
#1382183
1@
#1383183
0?
#1383416
0V
#1383911
1U
#1384597
0d
#1400000
0!
1$
#1400862
0W
#1420000
1!
0$
#1420699
1W
#1422183
0@
#1423465
1V
#1424620
1d
#1440000
0!
1$
#1440862
0W
#1460000
1!
0$
#1460699
1W
#1462183
1@
#1463183
1?
#1463416
0V
#1463827
0U
#1464296
0>
#1464597
0d
#1465011
1T
#1465566
1c
#1480000
0!
1$
#1480862
0W
#1500000
1!
0$
#1500699
1W
#1502183
0@
#1503465
1V
#1504620
1d
#1520000
0!
1$
#1520862
0W
#1540000
1!
0$
#1540699
1W
#1542183
1@
#1543183
0?
#1543416
0V
#1543911
1U
#1544597
0d
#1560000
0!
1$
#1560862
0W
#1580000
1!
0$
#1580699
1W
#1582183
0@
#1583465
1V
#1584620
1d
#1600000
0!
1$
#1600862
0W
#1620000
1!
0$
#1620699
1W
#1622183
1@
#1623183
1?
#1623416
0V
#1623827
0U
#1624296
1>
#1624597
0d
#1624926
0T
#1625283
0=
#1625535
0c
#1625837
1S
#1640000
0!
1$
#1640862
0W
#1660000
1!
0$
#1660699
1W
#1662183
0@
#1663465
1V
#1664620
1d
#1680000
0!
1$
#1680862
0W
#1700000
1!
0$
#1700699
1W
#1702183
1@
#1703183
0?
#1703416
0V
#1703911
1U
#1704597
0d
#1720000
0!
1$
#1720862
0W
#1740000
1!
0$
#1740699
1W
#1742183
0@
#1743465
1V
#1744620
1d
#1760000
0!
1$
#1760862
0W
#1780000
1!
0$
#1780699
1W
#1782183
1@
#1783183
1?
#1783416
0V
#1783827
0U
#1784296
0>
#1784597
0d
#1785011
1T
#1785566
1c
#1800000
0!
1$
#1800862
0W
#1820000
1!
0$
#1820699
1W
#1822183
0@
#1823465
1V
#1824620
1d
#1840000
0!
1$
#1840862
0W
#1860000
1!
0$
#1860699
1W
#1862183
1@
#1863183
0?
#1863416
0V
#1863911
1U
#1864597
0d
#1880000
0!
1$
#1880862
0W
#1900000
1!
0$
#1900699
1W
#1902183
0@
#1903465
1V
#1904620
1d
#1920000
0!
1$
#1920862
0W
#1940000
1!
0$
#1940699
1W
#1942183
1@
#1943183
1?
#1943416
0V
#1943827
0U
#1944296
1>
#1944597
0d
#1944926
0T
#1945283
1=
#1945535
0c
#1945760
0S
#1946642
1<
#1947264
0R
#1947641
0;
#1947875
0b
#1948196
1Q
#1960000
0!
1$
#1960862
0W
#1980000
1!
0$
#1980699
1W
#1982183
0@
#1983465
1V
#1984620
1d
#2000000
0!
1$
#2000862
0W
#2020000
1!
0$
#2020699
1W
#2022183
1@
#2023183
0?
#2023416
0V
#2023911
1U
#2024597
0d
#2040000
0!
1$
#2040862
0W
#2060000
1!
0$
#2060699
1W
#2062183
0@
#2063465
1V
#2064620
1d
#2080000
0!
1$
#2080862
0W
#2100000
1!
0$
#2100699
1W
#2102183
1@
#2103183
1?
#2103416
0V
#2103827
0U
#2104296
0>
#2104597
0d
#2105011
1T
#2105566
1c
#2120000
0!
1$
#2120862
0W
#2140000
1!
0$
#2140699
1W
#2142183
0@
#2143465
1V
#2144620
1d
#2160000
0!
1$
#2160862
0W
#2180000
1!
0$
#2180699
1W
#2182183
1@
#2183183
0?
#2183416
0V
#2183911
1U
#2184597
0d
#2200000
0!
1$
#2200862
0W
#2220000
1!
0$
#2220699
1W
#2222183
0@
#2223465
1V
#2224620
1d
#2240000
0!
1$
#2240862
0W
#2260000
1!
0$
#2260699
1W
#2262183
1@
#2263183
1?
#2263416
0V
#2263827
0U
#2264296
1>
#2264597
0d
#2264926
0T
#2265283
0=
#2265535
0c
#2265837
1S
#2280000
0!
1$
#2280862
0W
#2300000
1!
0$
#2300699
1W
#2302183
0@
#2303465
1V
#2304620
1d
#2320000
0!
1$
#2320862
0W
#2340000
1!
0$
#2340699
1W
#2342183
1@
#2343183
0?
#2343416
0V
#2343911
1U
#2344597
0d
#2360000
0!
1$
#2360862
0W
#2380000
1!
0$
#2380699
1W
#2382183
0@
#2383465
1V
#2384620
1d
#2400000
0!
1$
#2400862
0W
#2420000
1!
0$
#2420699
1W
#2422183
1@
#2423183
1?
#2423416
0V
#2423827
0U
#2424296
0>
#2424597
0d
#2425011
1T
#2425566
1c
#2440000
0!
1$
#2440862
0W
#2460000
1!
0$
#2460699
1W
#2462183
0@
#2463465
1V
#2464620
1d
#2480000
0!
1$
#2480862
0W
#2500000
1!
0$
#2500699
1W
#2502183
1@
#2503183
0?
#2503416
0V
#2503911
1U
#2504597
0d
#2520000
0!
1$
#2520862
0W
#2540000
1!
0$
#2540699
1W
#2542183
0@
#2543465
1V
#2544620
1d
#2560000
0!
1$
#2560862
0W
#2580000
1!
0$
#2580699
1W
#2582183
1@
#2583183
1?
#2583416
0V
#2583827
0U
#2584296
1>
#2584597
0d
#2584926
0T
#2585283
1=
#2585535
0c
#2585760
0S
#2586642
0<
#2587324
1R
#2587881
1b
#2600000
0!
1$
#2600862
0W
#2620000
1!
0$
#2620699
1W
#2622183
0@
#2623465
1V
#2624620
1d
#2640000
0!
1$
#2640862
0W
#2660000
1!
0$
#2660699
1W
#2662183
1@
#2663183
0?
#2663416
0V
#2663911
1U
#2664597
0d
#2680000
0!
1$
#2680862
0W
#2700000
1!
0$
#2700699
1W
#2702183
0@
#2703465
1V
#2704620
1d
#2720000
0!
1$
#2720862
0W
#2740000
1!
0$
#2740699
1W
#2742183
1@
#2743183
1?
#2743416
0V
#2743827
0U
#2744296
0>
#2744597
0d
#2745011
1T
#2745566
1c
#2760000
0!
1$
#2760862
0W
#2780000
1!
0$
#2780699
1W
#2782183
0@
#2783465
1V
#2784620
1d
#2800000
0!
1$
#2800862
0W
#2820000
1!
0$
#2820699
1W
#2822183
1@
#2823183
0?
#2823416
0V
#2823911
1U
#2824597
0d
#2840000
0!
1$
#2840862
0W
#2860000
1!
0$
#2860699
1W
#2862183
0@
#2863465
1V
#2864620
1d
#2880000
0!
1$
#2880862
0W
#2900000
1!
0$
#2900699
1W
#2902183
1@
#2903183
1?
#2903416
0V
#2903827
0U
#2904296
1>
#2904597
0d
#2904926
0T
#2905283
0=
#2905535
0c
#2905837
1S
#2920000
0!
1$
#2920862
0W
#2940000
1!
0$
#2940699
1W
#2942183
0@
#2943465
1V
#2944620
1d
#2960000
0!
1$
#2960862
0W
#2980000
1!
0$
#2980699
1W
#2982183
1@
#2983183
0?
#2983416
0V
#2983911
1U
#2984597
0d
#3000000
0!
1$
#3000862
0W
#3020000
1!
0$
#3020699
1W
#3022183
0@
#3023465
1V
#3024620
1d
#3040000
0!
1$
#3040862
0W
#3060000
1!
0$
#3060699
1W
#3062183
1@
#3063183
1?
#3063416
0V
#3063827
0U
#3064296
0>
#3064597
0d
#3065011
1T
#3065566
1c
#3080000
0!
1$
#3080862
0W
#3100000
1!
0$
#3100699
1W
#3102183
0@
#3103465
1V
#3104620
1d
#3120000
0!
1$
#3120862
0W
#3140000
1!
0$
#3140699
1W
#3142183
1@
#3143183
0?
#3143416
0V
#3143911
1U
#3144597
0d
#3160000
0!
1$
#3160862
0W
#3180000
1!
0$
#3180699
1W
#3182183
0@
#3183465
1V
#3184620
1d
#3200000
0!
1$
#3200862
0W
#3220000
1!
0$
#3220699
1W
#3222183
1@
#3223183
1?
#3223416
0V
#3223827
0U
#3224296
1>
#3224597
0d
#3224926
0T
#3225283
1=
#3225535
0c
#3225760
0S
#3226642
1<
#3227264
0R
#3227641
1;
#3227875
0b
#3228119
0Q
#3228960
0:
#3229641
1P
#3230195
1a
#3240000
0!
1$
#3240862
0W
#3260000
1!
0$
#3260699
1W
#3262183
0@
#3263465
1V
#3264620
1d
#3280000
0!
1$
#3280862
0W
#3300000
1!
0$
#3300699
1W
#3302183
1@
#3303183
0?
#3303416
0V
#3303911
1U
#3304597
0d
#3320000
0!
1$
#3320862
0W
#3340000
1!
0$
#3340699
1W
#3342183
0@
#3343465
1V
#3344620
1d
#3360000
0!
1$
#3360862
0W
#3380000
1!
0$
#3380699
1W
#3382183
1@
#3383183
1?
#3383416
0V
#3383827
0U
#3384296
0>
#3384597
0d
#3385011
1T
#3385566
1c
#3400000
0!
1$
#3400862
0W
#3420000
1!
0$
#3420699
1W
#3422183
0@
#3423465
1V
#3424620
1d
#3440000
0!
1$
#3440862
0W
#3460000
1!
0$
#3460699
1W
#3462183
1@
#3463183
0?
#3463416
0V
#3463911
1U
#3464597
0d
#3480000
0!
1$
#3480862
0W
#3500000
1!
0$
#3500699
1W
#3502183
0@
#3503465
1V
#3504620
1d
#3520000
0!
1$
#3520862
0W
#3540000
1!
0$
#3540699
1W
#3542183
1@
#3543183
1?
#3543416
0V
#3543827
0U
#3544296
1>
#3544597
0d
#3544926
0T
#3545283
0=
#3545535
0c
#3545837
1S
#3560000
0!
1$
#3560862
0W
#3580000
1!
0$
#3580699
1W
#3582183
0@
#3583465
1V
#3584620
1d
#3600000
0!
1$
#3600862
0W
#3620000
1!
0$
#3620699
1W
#3622183
1@
#3623183
0?
#3623416
0V
#3623911
1U
#3624597
0d
#3640000
0!
1$
#3640862
0W
#3660000
1!
0$
#3660699
1W
#3662183
0@
#3663465
1V
#3664620
1d
#3680000
0!
1$
#3680862
0W
#3700000
1!
0$
#3700699
1W
#3702183
1@
#3703183
1?
#3703416
0V
#3703827
0U
#3704296
0>
#3704597
0d
#3705011
1T
#3705566
1c
#3720000
0!
1$
#3720862
0W
#3740000
1!
0$
#3740699
1W
#3742183
0@
#3743465
1V
#3744620
1d
#3760000
0!
1$
#3760862
0W
#3780000
1!
0$
#3780699
1W
#3782183
1@
#3783183
0?
#3783416
0V
#3783911
1U
#3784597
0d
#3800000
0!
1$
#3800862
0W
#3820000
1!
0$
#3820699
1W
#3822183
0@
#3823465
1V
#3824620
1d
#3840000
0!
1$
#3840862
0W
#3860000
1!
0$
#3860699
1W
#3862183
1@
#3863183
1?
#3863416
0V
#3863827
0U
#3864296
1>
#3864597
0d
#3864926
0T
#3865283
1=
#3865535
0c
#3865760
0S
#3866642
0<
#3867324
1R
#3867881
1b
#3880000
0!
1$
#3880862
0W
#3900000
1!
0$
#3900699
1W
#3902183
0@
#3903465
1V
#3904620
1d
#3920000
0!
1$
#3920862
0W
#3940000
1!
0$
#3940699
1W
#3942183
1@
#3943183
0?
#3943416
0V
#3943911
1U
#3944597
0d
#3960000
0!
1$
#3960862
0W
#3980000
1!
0$
#3980699
1W
#3982183
0@
#3983465
1V
#3984620
1d
#4000000
0!
1$
#4000862
0W
#4020000
1!
0$
#4020699
1W
#4022183
1@
#4023183
1?
#4023416
0V
#4023827
0U
#4024296
0>
#4024597
0d
#4025011
1T
#4025566
1c
#4040000
0!
1$
#4040862
0W
#4060000
1!
0$
#4060699
1W
#4062183
0@
#4063465
1V
#4064620
1d
#4080000
0!
1$
#4080862
0W
#4100000
1!
0$
#4100699
1W
#4102183
1@
#4103183
0?
#4103416
0V
#4103911
1U
#4104597
0d
#4120000
0!
1$
#4120862
0W
#4140000
1!
0$
#4140699
1W
#4142183
0@
#4143465
1V
#4144620
1d
#4160000
0!
1$
#4160862
0W
#4180000
1!
0$
#4180699
1W
#4182183
1@
#4183183
1?
#4183416
0V
#4183827
0U
#4184296
1>
#4184597
0d
#4184926
0T
#4185283
0=
#4185535
0c
#4185837
1S
#4200000
0!
1$
#4200862
0W
#4220000
1!
0$
#4220699
1W
#4222183
0@
#4223465
1V
#4224620
1d
#4240000
0!
1$
#4240862
0W
#4260000
1!
0$
#4260699
1W
#4262183
1@
#4263183
0?
#4263416
0V
#4263911
1U
#4264597
0d
#4280000
0!
1$
#4280862
0W
#4300000
1!
0$
#4300699
1W
#4302183
0@
#4303465
1V
#4304620
1d
#4320000
0!
1$
#4320862
0W
#4340000
1!
0$
#4340699
1W
#4342183
1@
#4343183
1?
#4343416
0V
#4343827
0U
#4344296
0>
#4344597
0d
#4345011
1T
#4345566
1c
#4360000
0!
1$
#4360862
0W
#4380000
1!
0$
#4380699
1W
#4382183
0@
#4383465
1V
#4384620
1d
#4400000
0!
1$
#4400862
0W
#4420000
1!
0$
#4420699
1W
#4422183
1@
#4423183
0?
#4423416
0V
#4423911
1U
#4424597
0d
#4440000
0!
1$
#4440862
0W
#4460000
1!
0$
#4460699
1W
#4462183
0@
#4463465
1V
#4464620
1d
#4480000
0!
1$
#4480862
0W
#4500000
1!
0$
#4500699
1W
#4502183
1@
#4503183
1?
#4503416
0V
#4503827
0U
#4504296
1>
#4504597
0d
#4504926
0T
#4505283
1=
#4505535
0c
#4505760
0S
#4506642
1<
#4507264
0R
#4507641
0;
#4507875
0b
#4508196
1Q
#4520000
0!
1$
#4520862
0W
#4540000
1!
0$
#4540699
1W
#4542183
0@
#4543465
1V
#4544620
1d
#4560000
0!
1$
#4560862
0W
#4580000
1!
0$
#4580699
1W
#4582183
1@
#4583183
0?
#4583416
0V
#4583911
1U
#4584597
0d
#4600000
0!
1$
#4600862
0W
#4620000
1!
0$
#4620699
1W
#4622183
0@
#4623465
1V
#4624620
1d
#4640000
0!
1$
#4640862
0W
#4660000
1!
0$
#4660699
1W
#4662183
1@
#4663183
1?
#4663416
0V
#4663827
0U
#4664296
0>
#4664597
0d
#4665011
1T
#4665566
1c
#4680000
0!
1$
#4680862
0W
#4700000
1!
0$
#4700699
1W
#4702183
0@
#4703465
1V
#4704620
1d
#4720000
0!
1$
#4720862
0W
#4740000
1!
0$
#4740699
1W
#4742183
1@
#4743183
0?
#4743416
0V
#4743911
1U
#4744597
0d
#4760000
0!
1$
#4760862
0W
#4780000
1!
0$
#4780699
1W
#4782183
0@
#4783465
1V
#4784620
1d
#4800000
0!
1$
#4800862
0W
#4820000
1!
0$
#4820699
1W
#4822183
1@
#4823183
1?
#4823416
0V
#4823827
0U
#4824296
1>
#4824597
0d
#4824926
0T
#4825283
0=
#4825535
0c
#4825837
1S
#4840000
0!
1$
#4840862
0W
#4860000
1!
0$
#4860699
1W
#4862183
0@
#4863465
1V
#4864620
1d
#4880000
0!
1$
#4880862
0W
#4900000
1!
0$
#4900699
1W
#4902183
1@
#4903183
0?
#4903416
0V
#4903911
1U
#4904597
0d
#4920000
0!
1$
#4920862
0W
#4940000
1!
0$
#4940699
1W
#4942183
0@
#4943465
1V
#4944620
1d
#4960000
0!
1$
#4960862
0W
#4980000
1!
0$
#4980699
1W
#4982183
1@
#4983183
1?
#4983416
0V
#4983827
0U
#4984296
0>
#4984597
0d
#4985011
1T
#4985566
1c
#5000000
0!
1$
#5000862
0W
#5020000
1!
0$
#5020699
1W
#5022183
0@
#5023465
1V
#5024620
1d
#5040000
0!
1$
#5040862
0W
#5060000
1!
0$
#5060699
1W
#5062183
1@
#5063183
0?
#5063416
0V
#5063911
1U
#5064597
0d
#5080000
0!
1$
#5080862
0W
#5100000
1!
0$
#5100699
1W
#5102183
0@
#5103465
1V
#5104620
1d
#5120000
0!
1$
#5120862
0W
#5140000
1!
0$
#5140699
1W
#5142183
1@
#5143183
1?
#5143416
0V
#5143827
0U
#5144296
1>
#5144597
0d
#5144926
0T
#5145283
1=
#5145535
0c
#5145760
0S
#5146642
0<
#5147324
1R
#5147881
1b
#5160000
0!
1$
#5160862
0W
#5180000
1!
0$
#5180699
1W
#5182183
0@
#5183465
1V
#5184620
1d
#5200000
0!
1$
#5200862
0W
#5220000
1!
0$
#5220699
1W
#5222183
1@
#5223183
0?
#5223416
0V
#5223911
1U
#5224597
0d
#5240000
0!
1$
#5240862
0W
#5260000
1!
0$
#5260699
1W
#5262183
0@
#5263465
1V
#5264620
1d
#5280000
0!
1$
#5280862
0W
#5300000
1!
0$
#5300699
1W
#5302183
1@
#5303183
1?
#5303416
0V
#5303827
0U
#5304296
0>
#5304597
0d
#5305011
1T
#5305566
1c
#5320000
0!
1$
#5320862
0W
#5340000
1!
0$
#5340699
1W
#5342183
0@
#5343465
1V
#5344620
1d
#5360000
0!
1$
#5360862
0W
#5380000
1!
0$
#5380699
1W
#5382183
1@
#5383183
0?
#5383416
0V
#5383911
1U
#5384597
0d
#5400000
0!
1$
#5400862
0W
#5420000
1!
0$
#5420699
1W
#5422183
0@
#5423465
1V
#5424620
1d
#5440000
0!
1$
#5440862
0W
#5460000
1!
0$
#5460699
1W
#5462183
1@
#5463183
1?
#5463416
0V
#5463827
0U
#5464296
1>
#5464597
0d
#5464926
0T
#5465283
0=
#5465535
0c
#5465837
1S
#5480000
0!
1$
#5480862
0W
#5500000
1!
0$
#5500699
1W
#5502183
0@
#5503465
1V
#5504620
1d
#5520000
0!
1$
#5520862
0W
#5540000
1!
0$
#5540699
1W
#5542183
1@
#5543183
0?
#5543416
0V
#5543911
1U
#5544597
0d
#5560000
0!
1$
#5560862
0W
#5580000
1!
0$
#5580699
1W
#5582183
0@
#5583465
1V
#5584620
1d
#5600000
0!
1$
#5600862
0W
#5620000
1!
0$
#5620699
1W
#5622183
1@
#5623183
1?
#5623416
0V
#5623827
0U
#5624296
0>
#5624597
0d
#5625011
1T
#5625566
1c
#5640000
0!
1$
#5640862
0W
#5660000
1!
0$
#5660699
1W
#5662183
0@
#5663465
1V
#5664620
1d
#5680000
0!
1$
#5680862
0W
#5700000
1!
0$
#5700699
1W
#5702183
1@
#5703183
0?
#5703416
0V
#5703911
1U
#5704597
0d
#5720000
0!
1$
#5720862
0W
#5740000
1!
0$
#5740699
1W
#5742183
0@
#5743465
1V
#5744620
1d
#5760000
0!
1$
#5760862
0W
#5780000
1!
0$
#5780699
1W
#5782183
1@
#5783183
1?
#5783416
0V
#5783827
0U
#5784296
1>
#5784597
0d
#5784926
0T
#5785283
1=
#5785535
0c
#5785760
0S
#5786642
1<
#5787264
0R
#5787641
1;
#5787875
0b
#5788119
0Q
#5788960
1:
#5789578
0P
#5789959
09
#5790185
0a
#5790524
1O
#5800000
0!
1$
#5800862
0W
#5820000
1!
0$
#5820699
1W
#5822183
0@
#5823465
1V
#5824620
1d
#5840000
0!
1$
#5840862
0W
#5860000
1!
0$
#5860699
1W
#5862183
1@
#5863183
0?
#5863416
0V
#5863911
1U
#5864597
0d
#5880000
0!
1$
#5880862
0W
#5900000
1!
0$
#5900699
1W
#5902183
0@
#5903465
1V
#5904620
1d
#5920000
0!
1$
#5920862
0W
#5940000
1!
0$
#5940699
1W
#5942183
1@
#5943183
1?
#5943416
0V
#5943827
0U
#5944296
0>
#5944597
0d
#5945011
1T
#5945566
1c
#5960000
0!
1$
#5960862
0W
#5980000
1!
0$
#5980699
1W
#5982183
0@
#5983465
1V
#5984620
1d
#6000000
0!
1$
#6000862
0W
#6020000
1!
0$
#6020699
1W
#6022183
1@
#6023183
0?
#6023416
0V
#6023911
1U
#6024597
0d
#6040000
0!
1$
#6040862
0W
#6060000
1!
0$
#6060699
1W
#6062183
0@
#6063465
1V
#6064620
1d
#6080000
0!
1$
#6080862
0W
#6100000
1!
0$
#6100699
1W
#6102183
1@
#6103183
1?
#6103416
0V
#6103827
0U
#6104296
1>
#6104597
0d
#6104926
0T
#6105283
0=
#6105535
0c
#6105837
1S
#6120000
0!
1$
#6120862
0W
#6140000
1!
0$
#6140699
1W
#6142183
0@
#6143465
1V
#6144620
1d
#6160000
0!
1$
#6160862
0W
#6180000
1!
0$
#6180699
1W
#6182183
1@
#6183183
0?
#6183416
0V
#6183911
1U
#6184597
0d
#6200000
0!
1$
#6200862
0W
#6220000
1!
0$
#6220699
1W
#6222183
0@
#6223465
1V
#6224620
1d
#6240000
0!
1$
#6240862
0W
#6260000
1!
0$
#6260699
1W
#6262183
1@
#6263183
1?
#6263416
0V
#6263827
0U
#6264296
0>
#6264597
0d
#6265011
1T
#6265566
1c
#6280000
0!
1$
#6280862
0W
#6300000
1!
0$
#6300699
1W
#6302183
0@
#6303465
1V
#6304620
1d
#6320000
0!
1$
#6320862
0W
#6340000
1!
0$
#6340699
1W
#6342183
1@
#6343183
0?
#6343416
0V
#6343911
1U
#6344597
0d
#6360000
0!
1$
#6360862
0W
#6380000
1!
0$
#6380699
1W
#6382183
0@
#6383465
1V
#6384620
1d
#6400000
0!
1$
#6400862
0W
#6420000
1!
0$
#6420699
1W
#6422183
1@
#6423183
1?
#6423416
0V
#6423827
0U
#6424296
1>
#6424597
0d
#6424926
0T
#6425283
1=
#6425535
0c
#6425760
0S
#6426642
0<
#6427324
1R
#6427881
1b
#6440000
0!
1$
#6440862
0W
#6460000
1!
0$
#6460699
1W
#6462183
0@
#6463465
1V
#6464620
1d
#6480000
0!
1$
#6480862
0W
#6500000
1!
0$
#6500699
1W
#6502183
1@
#6503183
0?
#6503416
0V
#6503911
1U
#6504597
0d
#6520000
0!
1$
#6520862
0W
#6540000
1!
0$
#6540699
1W
#6542183
0@
#6543465
1V
#6544620
1d
#6560000
0!
1$
#6560862
0W
#6580000
1!
0$
#6580699
1W
#6582183
1@
#6583183
1?
#6583416
0V
#6583827
0U
#6584296
0>
#6584597
0d
#6585011
1T
#6585566
1c
#6600000
0!
1$
#6600862
0W
#6620000
1!
0$
#6620699
1W
#6622183
0@
#6623465
1V
#6624620
1d
#6640000
0!
1$
#6640862
0W
#6660000
1!
0$
