trabalho_final/projeto/simulation/qsim/PROJETO_NEANDER.msim.vcd
$comment
	File created using the following command:
		vcd file PROJETO_NEANDER.msim.vcd -direction
$end
$date
	Fri Dec 29 02:48:09 2023
$end
$version
	ModelSim Version 10.1d
$end
$timescale
	1ps
$end
$scope module PROJETO_NEANDER_vlg_vec_tst $end
$var reg 1 ! CLK_IN $end
$var reg 1 " RST $end
$var reg 1 # RUN_STEP $end
$var reg 1 $ STEP_UP $end
$var wire 1 % AC0_A $end
$var wire 1 & AC0_B $end
$var wire 1 ' AC0_C $end
$var wire 1 ( AC0_D $end
$var wire 1 ) AC0_E $end
$var wire 1 * AC0_F $end
$var wire 1 + AC0_G $end
$var wire 1 , AC1_A $end
$var wire 1 - AC1_B $end
$var wire 1 . AC1_C $end
$var wire 1 / AC1_D $end
$var wire 1 0 AC1_E $end
$var wire 1 1 AC1_F $end
$var wire 1 2 AC1_G $end
$var wire 1 3 AC_O [7] $end
$var wire 1 4 AC_O [6] $end
$var wire 1 5 AC_O [5] $end
$var wire 1 6 AC_O [4] $end
$var wire 1 7 AC_O [3] $end
$var wire 1 8 AC_O [2] $end
$var wire 1 9 AC_O [1] $end
$var wire 1 : AC_O [0] $end
$var wire 1 ; ADDR [7] $end
$var wire 1 < ADDR [6] $end
$var wire 1 = ADDR [5] $end
$var wire 1 > ADDR [4] $end
$var wire 1 ? ADDR [3] $end
$var wire 1 @ ADDR [2] $end
$var wire 1 A ADDR [1] $end
$var wire 1 B ADDR [0] $end
$var wire 1 C C_AC $end
$var wire 1 D C_NZ $end
$var wire 1 E C_PC $end
$var wire 1 F C_RDM $end
$var wire 1 G C_REM $end
$var wire 1 H C_RI $end
$var wire 1 I DATA [7] $end
$var wire 1 J DATA [6] $end
$var wire 1 K DATA [5] $end
$var wire 1 L DATA [4] $end
$var wire 1 M DATA [3] $end
$var wire 1 N DATA [2] $end
$var wire 1 O DATA [1] $end
$var wire 1 P DATA [0] $end
$var wire 1 Q GOTO_T0 $end
$var wire 1 R HLT_OUT $end
$var wire 1 S INC_PC $end
$var wire 1 T N_OUT $end
$var wire 1 U PC0_A $end
$var wire 1 V PC0_B $end
$var wire 1 W PC0_C $end
$var wire 1 X PC0_D $end
$var wire 1 Y PC0_E $end
$var wire 1 Z PC0_F $end
$var wire 1 [ PC0_G $end
$var wire 1 \ PC1_A $end
$var wire 1 ] PC1_B $end
$var wire 1 ^ PC1_C $end
$var wire 1 _ PC1_D $end
$var wire 1 ` PC1_E $end
$var wire 1 a PC1_F $end
$var wire 1 b PC1_G $end
$var wire 1 c PC_O [7] $end
$var wire 1 d PC_O [6] $end
$var wire 1 e PC_O [5] $end
$var wire 1 f PC_O [4] $end
$var wire 1 g PC_O [3] $end
$var wire 1 h PC_O [2] $end
$var wire 1 i PC_O [1] $end
$var wire 1 j PC_O [0] $end
$var wire 1 k READ $end
$var wire 1 l RI_O [7] $end
$var wire 1 m RI_O [6] $end
$var wire 1 n RI_O [5] $end
$var wire 1 o RI_O [4] $end
$var wire 1 p RI_O [3] $end
$var wire 1 q RI_O [2] $end
$var wire 1 r RI_O [1] $end
$var wire 1 s RI_O [0] $end
$var wire 1 t SEL $end
$var wire 1 u TEMP_O [7] $end
$var wire 1 v TEMP_O [6] $end
$var wire 1 w TEMP_O [5] $end
$var wire 1 x TEMP_O [4] $end
$var wire 1 y TEMP_O [3] $end
$var wire 1 z TEMP_O [2] $end
$var wire 1 { TEMP_O [1] $end
$var wire 1 | TEMP_O [0] $end
$var wire 1 } ULA_ADD $end
$var wire 1 ~ ULA_AND $end
$var wire 1 !! ULA_NOT $end
$var wire 1 "! ULA_OR $end
$var wire 1 #! ULA_Y $end
$var wire 1 $! WRITE $end
$var wire 1 %! Z_OUT $end
$var wire 1 &! sampler $end
$scope module i1 $end
$var wire 1 '! gnd $end
$var wire 1 (! vcc $end
$var wire 1 )! unknown $end
$var tri1 1 *! devclrn $end
$var tri1 1 +! devpor $end
$var tri1 1 ,! devoe $end
$var wire 1 -! UC|C_AC0|OR1~0_combout $end
$var wire 1 .! UC|READ0|AND3~0_combout $end
$var wire 1 /! ULA0|MUX|MUX1|MUX0|OR~0_combout $end
$var wire 1 0! ULA0|ADD|Bit_1|Adder1~0_combout $end
$var wire 1 1! ULA0|MUX|MUX1|MUX5|OR~0_combout $end
$var wire 1 2! ULA0|MUX|MUX1|MUX7|OR~0_combout $end
$var wire 1 3! PC|XOR1~combout $end
$var wire 1 4! FD0|FFD22~q $end
$var wire 1 5! FD0|FFD21~q $end
$var wire 1 6! FD0|FFD20~q $end
$var wire 1 7! FD0|FFD19~q $end
$var wire 1 8! FD0|FFD18~q $end
$var wire 1 9! FD0|FFD17~q $end
$var wire 1 :! FD0|FFD16~q $end
$var wire 1 ;! FD0|FFD15~q $end
$var wire 1 <! FD0|FFD14~q $end
$var wire 1 =! FD0|FFD13~q $end
$var wire 1 >! FD0|FFD12~q $end
$var wire 1 ?! FD0|FFD11~q $end
$var wire 1 @! FD0|FFD10~q $end
$var wire 1 A! FD0|FFD9~q $end
$var wire 1 B! FD0|FFD8~q $end
$var wire 1 C! FD0|FFD7~q $end
$var wire 1 D! FD0|FFD6~q $end
$var wire 1 E! FD0|FFD5~q $end
$var wire 1 F! FD0|FFD4~q $end
$var wire 1 G! FD0|FFD3~q $end
$var wire 1 H! FD0|FFD2~q $end
$var wire 1 I! FD0|FFD1~q $end
$var wire 1 J! FD0|FFD0~q $end
$var wire 1 K! UC|inst|OR2~9_combout $end
$var wire 1 L! FD0|FFD22~0_combout $end
$var wire 1 M! FD0|FFD21~0_combout $end
$var wire 1 N! FD0|FFD20~0_combout $end
$var wire 1 O! FD0|FFD19~0_combout $end
$var wire 1 P! FD0|FFD18~0_combout $end
$var wire 1 Q! FD0|FFD17~0_combout $end
$var wire 1 R! FD0|FFD16~0_combout $end
$var wire 1 S! FD0|FFD15~0_combout $end
$var wire 1 T! FD0|FFD14~0_combout $end
$var wire 1 U! FD0|FFD13~0_combout $end
$var wire 1 V! FD0|FFD12~0_combout $end
$var wire 1 W! FD0|FFD11~0_combout $end
$var wire 1 X! FD0|FFD10~0_combout $end
$var wire 1 Y! FD0|FFD9~0_combout $end
$var wire 1 Z! FD0|FFD8~0_combout $end
$var wire 1 [! FD0|FFD7~0_combout $end
$var wire 1 \! FD0|FFD6~0_combout $end
$var wire 1 ]! FD0|FFD5~0_combout $end
$var wire 1 ^! FD0|FFD4~0_combout $end
$var wire 1 _! FD0|FFD3~0_combout $end
$var wire 1 `! FD0|FFD2~0_combout $end
$var wire 1 a! FD0|FFD1~0_combout $end
$var wire 1 b! FD0|FFD0~0_combout $end
$var wire 1 c! STEP_UP~input_o $end
$var wire 1 d! CLK_IN~input_o $end
$var wire 1 e! FD0|FFD22~feeder_combout $end
$var wire 1 f! FD0|FFD20~feeder_combout $end
$var wire 1 g! FD0|FFD18~feeder_combout $end
$var wire 1 h! FD0|FFD16~feeder_combout $end
$var wire 1 i! FD0|FFD12~feeder_combout $end
$var wire 1 j! FD0|FFD8~feeder_combout $end
$var wire 1 k! FD0|FFD6~feeder_combout $end
$var wire 1 l! FD0|FFD4~feeder_combout $end
$var wire 1 m! FD0|FFD3~feeder_combout $end
$var wire 1 n! FD0|FFD2~feeder_combout $end
$var wire 1 o! FD0|FFD0~feeder_combout $end
$var wire 1 p! AC0_A~output_o $end
$var wire 1 q! C_AC~output_o $end
$var wire 1 r! C_RI~output_o $end
$var wire 1 s! C_RDM~output_o $end
$var wire 1 t! READ~output_o $end
$var wire 1 u! C_REM~output_o $end
$var wire 1 v! SEL~output_o $end
$var wire 1 w! INC_PC~output_o $end
$var wire 1 x! C_PC~output_o $end
$var wire 1 y! ULA_Y~output_o $end
$var wire 1 z! ULA_ADD~output_o $end
$var wire 1 {! ULA_AND~output_o $end
$var wire 1 |! ULA_OR~output_o $end
$var wire 1 }! ULA_NOT~output_o $end
$var wire 1 ~! C_NZ~output_o $end
$var wire 1 !" GOTO_T0~output_o $end
$var wire 1 "" AC0_B~output_o $end
$var wire 1 #" AC0_C~output_o $end
$var wire 1 $" AC0_D~output_o $end
$var wire 1 %" AC0_E~output_o $end
$var wire 1 &" AC0_F~output_o $end
$var wire 1 '" AC0_G~output_o $end
$var wire 1 (" AC1_A~output_o $end
$var wire 1 )" AC1_B~output_o $end
$var wire 1 *" AC1_C~output_o $end
$var wire 1 +" AC1_D~output_o $end
$var wire 1 ," AC1_E~output_o $end
$var wire 1 -" AC1_F~output_o $end
$var wire 1 ." AC1_G~output_o $end
$var wire 1 /" PC0_A~output_o $end
$var wire 1 0" PC0_B~output_o $end
$var wire 1 1" PC0_C~output_o $end
$var wire 1 2" PC0_D~output_o $end
$var wire 1 3" PC0_E~output_o $end
$var wire 1 4" PC0_F~output_o $end
$var wire 1 5" PC0_G~output_o $end
$var wire 1 6" PC1_A~output_o $end
$var wire 1 7" PC1_B~output_o $end
$var wire 1 8" PC1_C~output_o $end
$var wire 1 9" PC1_D~output_o $end
$var wire 1 :" PC1_E~output_o $end
$var wire 1 ;" PC1_F~output_o $end
$var wire 1 <" PC1_G~output_o $end
$var wire 1 =" WRITE~output_o $end
$var wire 1 >" N_OUT~output_o $end
$var wire 1 ?" Z_OUT~output_o $end
$var wire 1 @" HLT_OUT~output_o $end
$var wire 1 A" AC_O[7]~output_o $end
$var wire 1 B" AC_O[6]~output_o $end
$var wire 1 C" AC_O[5]~output_o $end
$var wire 1 D" AC_O[4]~output_o $end
$var wire 1 E" AC_O[3]~output_o $end
$var wire 1 F" AC_O[2]~output_o $end
$var wire 1 G" AC_O[1]~output_o $end
$var wire 1 H" AC_O[0]~output_o $end
$var wire 1 I" ADDR[7]~output_o $end
$var wire 1 J" ADDR[6]~output_o $end
$var wire 1 K" ADDR[5]~output_o $end
$var wire 1 L" ADDR[4]~output_o $end
$var wire 1 M" ADDR[3]~output_o $end
$var wire 1 N" ADDR[2]~output_o $end
$var wire 1 O" ADDR[1]~output_o $end
$var wire 1 P" ADDR[0]~output_o $end
$var wire 1 Q" DATA[7]~output_o $end
$var wire 1 R" DATA[6]~output_o $end
$var wire 1 S" DATA[5]~output_o $end
$var wire 1 T" DATA[4]~output_o $end
$var wire 1 U" DATA[3]~output_o $end
$var wire 1 V" DATA[2]~output_o $end
$var wire 1 W" DATA[1]~output_o $end
$var wire 1 X" DATA[0]~output_o $end
$var wire 1 Y" PC_O[7]~output_o $end
$var wire 1 Z" PC_O[6]~output_o $end
$var wire 1 [" PC_O[5]~output_o $end
$var wire 1 \" PC_O[4]~output_o $end
$var wire 1 ]" PC_O[3]~output_o $end
$var wire 1 ^" PC_O[2]~output_o $end
$var wire 1 _" PC_O[1]~output_o $end
$var wire 1 `" PC_O[0]~output_o $end
$var wire 1 a" RI_O[7]~output_o $end
$var wire 1 b" RI_O[6]~output_o $end
$var wire 1 c" RI_O[5]~output_o $end
$var wire 1 d" RI_O[4]~output_o $end
$var wire 1 e" RI_O[3]~output_o $end
$var wire 1 f" RI_O[2]~output_o $end
$var wire 1 g" RI_O[1]~output_o $end
$var wire 1 h" RI_O[0]~output_o $end
$var wire 1 i" TEMP_O[7]~output_o $end
$var wire 1 j" TEMP_O[6]~output_o $end
$var wire 1 k" TEMP_O[5]~output_o $end
$var wire 1 l" TEMP_O[4]~output_o $end
$var wire 1 m" TEMP_O[3]~output_o $end
$var wire 1 n" TEMP_O[2]~output_o $end
$var wire 1 o" TEMP_O[1]~output_o $end
$var wire 1 p" TEMP_O[0]~output_o $end
$var wire 1 q" TEMP|CONT0|FF1~0_combout $end
$var wire 1 r" TEMP|DECOD0|AND0~7_combout $end
$var wire 1 s" UC|C_REM0|OR1~0_combout $end
$var wire 1 t" TEMP|DECOD0|AND0~2_combout $end
$var wire 1 u" UC|INC_PC0|AND3~combout $end
$var wire 1 v" UC|INC_PC0|OR2~1_combout $end
$var wire 1 w" PC|MUX5|MUX2|OR~0_combout $end
$var wire 1 x" RST~input_o $end
$var wire 1 y" DECOD|AND0~8_combout $end
$var wire 1 z" DECOD|AND0~7_combout $end
$var wire 1 {" UC|READ0|OR0~1_combout $end
$var wire 1 |" PC|FF3~2_combout $end
$var wire 1 }" PC|FF5~q $end
$var wire 1 ~" TEMP|DECOD0|AND0~5_combout $end
$var wire 1 !# REM|MUX2|OR~0_combout $end
$var wire 1 "# TEMP|DECOD0|AND0~6_combout $end
$var wire 1 ## DECOD|AND0~1_combout $end
$var wire 1 $# DECOD|AND0~6_combout $end
$var wire 1 %# DECOD|AND0~5_combout $end
$var wire 1 &# UC|READ0|OR0~0_combout $end
$var wire 1 '# UC|READ0|OR0~2_combout $end
$var wire 1 (# UC|C_REM0|OR2~combout $end
$var wire 1 )# REM|FF2~q $end
$var wire 1 *# ROM0|Mux4~0_combout $end
$var wire 1 +# REM|MUX4|OR~0_combout $end
$var wire 1 ,# REM|FF4~q $end
$var wire 1 -# REM|MUX5|OR~0_combout $end
$var wire 1 .# REM|FF5~q $end
$var wire 1 /# RDM|MUX1|OR~0_combout $end
$var wire 1 0# RDM|MUX1|OR~1_combout $end
$var wire 1 1# RDM|MUX3|OR~0_combout $end
$var wire 1 2# TEMP|DECOD0|AND0~4_combout $end
$var wire 1 3# UC|READ0|OR2~combout $end
$var wire 1 4# XOR0~combout $end
$var wire 1 5# RDM|FF3~q $end
$var wire 1 6# REM|MUX3|OR~0_combout $end
$var wire 1 7# REM|FF3~q $end
$var wire 1 8# ROM0|Mux5~0_combout $end
$var wire 1 9# RDM|MUX2|OR~0_combout $end
$var wire 1 :# ULA0|MUX|MUX1|MUX2|OR~0_combout $end
$var wire 1 ;# ULA0|ADD|Bit_2|Adder1~0_combout $end
$var wire 1 <# ULA0|MUX|MUX6|MUX2|OR~0_combout $end
$var wire 1 =# ULA0|MUX|MUX6|MUX2|OR~1_combout $end
$var wire 1 ># DECOD|AND0~0_combout $end
$var wire 1 ?# UC|C_AC0|AND0~combout $end
$var wire 1 @# UC|C_AC0|OR2~combout $end
$var wire 1 A# AC|FF2~q $end
$var wire 1 B# RDM|MUX2|OR~1_combout $end
$var wire 1 C# RDM|FF2~q $end
$var wire 1 D# PC|MUX2|MUX2|OR~0_combout $end
$var wire 1 E# PC|FF2~q $end
$var wire 1 F# PC|AND2~combout $end
$var wire 1 G# PC|MUX4|MUX2|OR~0_combout $end
$var wire 1 H# PC|FF4~q $end
$var wire 1 I# PC|AND3~combout $end
$var wire 1 J# PC|XOR6~combout $end
$var wire 1 K# PC|MUX7|MUX2|OR~0_combout $end
$var wire 1 L# PC|FF7~q $end
$var wire 1 M# REM|MUX7|OR~0_combout $end
$var wire 1 N# REM|FF7~q $end
$var wire 1 O# ROM0|Mux6~0_combout $end
$var wire 1 P# RDM|MUX1|OR~2_combout $end
$var wire 1 Q# RDM|FF1~q $end
$var wire 1 R# PC|MUX1|MUX2|OR~0_combout $end
$var wire 1 S# PC|FF1~q $end
$var wire 1 T# REM|MUX1|OR~0_combout $end
$var wire 1 U# REM|FF1~q $end
$var wire 1 V# ROM0|Mux2~0_combout $end
$var wire 1 W# ULA0|MUX|MUX6|MUX5|OR~0_combout $end
$var wire 1 X# RDM|MUX0|OR~1_combout $end
$var wire 1 Y# RDM|MUX0|OR~2_combout $end
$var wire 1 Z# RDM|MUX0|OR~0_combout $end
$var wire 1 [# RDM|FF0~q $end
$var wire 1 \# ULA0|ADD|Bit_1|Carry2~0_combout $end
$var wire 1 ]# ULA0|ADD|Bit_2|Carry2~1_combout $end
$var wire 1 ^# ULA0|ADD|Bit_2|Carry2~0_combout $end
$var wire 1 _# ULA0|ADD|Bit_4|Carry2~1_combout $end
$var wire 1 `# ULA0|ADD|Bit_4|Carry2~2_combout $end
$var wire 1 a# ULA0|ADD|Bit_5|Adder1~combout $end
$var wire 1 b# ULA0|MUX|MUX6|MUX5|OR~1_combout $end
$var wire 1 c# AC|FF5~q $end
$var wire 1 d# RDM|MUX5|OR~0_combout $end
$var wire 1 e# RDM|FF5~q $end
$var wire 1 f# TEMP|DECOD0|AND0~1_combout $end
$var wire 1 g# RI|FF5~q $end
$var wire 1 h# DECOD|AND0~2_combout $end
$var wire 1 i# UC|C_PC0|AND2~0_combout $end
$var wire 1 j# PC|FF0~0_combout $end
$var wire 1 k# PC|MUX0|MUX1|OR~0_combout $end
$var wire 1 l# PC|FF0~q $end
$var wire 1 m# REM|MUX0|OR~0_combout $end
$var wire 1 n# REM|FF0~q $end
$var wire 1 o# ROM0|Mux0~0_combout $end
$var wire 1 p# RDM|MUX7|OR~0_combout $end
$var wire 1 q# RDM|FF7~q $end
$var wire 1 r# RI|FF7~q $end
$var wire 1 s# COD|OR0~0_combout $end
$var wire 1 t# ULA0|MUX|MUX1|MUX6|OR~0_combout $end
$var wire 1 u# ULA0|MUX|MUX6|MUX6|OR~0_combout $end
$var wire 1 v# ULA0|ADD|Bit_4|Carry2~0_combout $end
$var wire 1 w# ULA0|ADD|Bit_3|Carry2~0_combout $end
$var wire 1 x# ULA0|ADD|Bit_3|Carry2~1_combout $end
$var wire 1 y# ULA0|ADD|Bit_5|Carry2~0_combout $end
$var wire 1 z# ULA0|ADD|Bit_5|Carry2~1_combout $end
$var wire 1 {# ULA0|MUX|MUX6|MUX6|OR~1_combout $end
$var wire 1 |# ULA0|MUX|MUX6|MUX6|OR~2_combout $end
$var wire 1 }# AC|FF6~q $end
$var wire 1 ~# ROM0|Mux1~0_combout $end
$var wire 1 !$ RDM|MUX6|OR~0_combout $end
$var wire 1 "$ RDM|FF6~q $end
$var wire 1 #$ RI|FF6~q $end
$var wire 1 $$ COD|OR1~0_combout $end
$var wire 1 %$ ULA0|MUX|MUX6|MUX0|OR~0_combout $end
$var wire 1 &$ ULA0|ADD|Bit_7|Adder1~0_combout $end
$var wire 1 '$ ULA0|MUX|MUX6|MUX7|OR~0_combout $end
$var wire 1 ($ ULA0|MUX|MUX6|MUX7|OR~1_combout $end
$var wire 1 )$ NZ|FF0~feeder_combout $end
$var wire 1 *$ NZ|FF0~q $end
$var wire 1 +$ UC|INC_PC0|OR2~0_combout $end
$var wire 1 ,$ UC|inst|OR2~8_combout $end
$var wire 1 -$ TEMP|FF0~0_combout $end
$var wire 1 .$ TEMP|FF0~q $end
$var wire 1 /$ TEMP|CONT0|FF1~q $end
$var wire 1 0$ TEMP|CONT0|FF2~0_combout $end
$var wire 1 1$ TEMP|CONT0|FF2~q $end
$var wire 1 2$ UC|C_RDM0|AND0~combout $end
$var wire 1 3$ ROM0|Mux3~0_combout $end
$var wire 1 4$ RDM|MUX4|OR~0_combout $end
$var wire 1 5$ RDM|FF4~q $end
$var wire 1 6$ RI|FF4~q $end
$var wire 1 7$ DECOD|AND0~9_combout $end
$var wire 1 8$ TEMP|CONT0|MUX0|OR~0_combout $end
$var wire 1 9$ TEMP|CONT0|FF0~q $end
$var wire 1 :$ TEMP|DECOD0|AND0~0_combout $end
$var wire 1 ;$ ULA0|MUX|MUX6|MUX0|OR~1_combout $end
$var wire 1 <$ ULA0|MUX|MUX1|MUX1|OR~0_combout $end
$var wire 1 =$ ULA0|MUX|MUX6|MUX1|OR~0_combout $end
$var wire 1 >$ ULA0|MUX|MUX6|MUX1|OR~1_combout $end
$var wire 1 ?$ AC|FF1~q $end
$var wire 1 @$ ULA0|MUX|MUX6|MUX0|OR~2_combout $end
$var wire 1 A$ ULA0|MUX|MUX6|MUX0|OR~3_combout $end
$var wire 1 B$ AC|FF0~q $end
$var wire 1 C$ ULA0|MUX|MUX1|MUX3|OR~0_combout $end
$var wire 1 D$ ULA0|ADD|Bit_3|Adder1~combout $end
$var wire 1 E$ ULA0|MUX|MUX6|MUX3|OR~0_combout $end
$var wire 1 F$ ULA0|MUX|MUX6|MUX3|OR~1_combout $end
$var wire 1 G$ AC|FF3~q $end
$var wire 1 H$ DISP_OUT0|OUT_A|OR~0_combout $end
$var wire 1 I$ UC|C_REM0|AND3~combout $end
$var wire 1 J$ UC|ULA_Y0|AND0~combout $end
$var wire 1 K$ DECOD|AND0~3_combout $end
$var wire 1 L$ UC|ULA_ADD0|AND0~combout $end
$var wire 1 M$ UC|ULA_AND0|AND0~combout $end
$var wire 1 N$ DECOD|AND0~4_combout $end
$var wire 1 O$ UC|ULA_OR0|AND0~combout $end
$var wire 1 P$ DISP_OUT0|inst|OR~0_combout $end
$var wire 1 Q$ DISP_OUT0|OUT_C|OR~0_combout $end
$var wire 1 R$ DISP_OUT0|OUT_D|OR~0_combout $end
$var wire 1 S$ DISP_OUT0|OUT_E|OR~0_combout $end
$var wire 1 T$ DISP_OUT0|OUT_F|OR~0_combout $end
$var wire 1 U$ DISP_OUT0|OUT_G|OR~0_combout $end
$var wire 1 V$ ULA0|MUX|MUX1|MUX4|OR~0_combout $end
$var wire 1 W$ ULA0|ADD|Bit_4|Adder1~0_combout $end
$var wire 1 X$ ULA0|MUX|MUX6|MUX4|OR~0_combout $end
$var wire 1 Y$ ULA0|MUX|MUX6|MUX4|OR~1_combout $end
$var wire 1 Z$ AC|FF4~q $end
$var wire 1 [$ DISP_OUT1|OUT_A|OR~0_combout $end
$var wire 1 \$ DISP_OUT1|inst|OR~0_combout $end
$var wire 1 ]$ DISP_OUT1|OUT_C|OR~0_combout $end
$var wire 1 ^$ DISP_OUT1|OUT_D|OR~0_combout $end
$var wire 1 _$ DISP_OUT1|OUT_E|OR~0_combout $end
$var wire 1 `$ DISP_OUT1|OUT_F|OR~0_combout $end
$var wire 1 a$ DISP_OUT1|OUT_G|OR~0_combout $end
$var wire 1 b$ PC|XOR2~combout $end
$var wire 1 c$ PC|MUX3|MUX2|OR~0_combout $end
$var wire 1 d$ PC|FF3~q $end
$var wire 1 e$ DISP_OUT2|OUT_A|OR~0_combout $end
$var wire 1 f$ DISP_OUT2|inst|OR~0_combout $end
$var wire 1 g$ DISP_OUT2|OUT_C|OR~0_combout $end
$var wire 1 h$ DISP_OUT2|OUT_D|OR~0_combout $end
$var wire 1 i$ DISP_OUT2|OUT_E|OR~0_combout $end
$var wire 1 j$ DISP_OUT2|OUT_F|OR~0_combout $end
$var wire 1 k$ DISP_OUT2|OUT_G|OR~0_combout $end
$var wire 1 l$ PC|XOR5~combout $end
$var wire 1 m$ PC|MUX6|MUX2|OR~0_combout $end
$var wire 1 n$ PC|FF6~q $end
$var wire 1 o$ DISP_OUT3|OUT_A|OR~0_combout $end
$var wire 1 p$ DISP_OUT3|inst|OR~0_combout $end
$var wire 1 q$ DISP_OUT3|OUT_C|OR~0_combout $end
$var wire 1 r$ DISP_OUT3|OUT_D|OR~0_combout $end
$var wire 1 s$ DISP_OUT3|OUT_E|OR~0_combout $end
$var wire 1 t$ DISP_OUT3|OUT_F|OR~0_combout $end
$var wire 1 u$ DISP_OUT3|OUT_G|OR~0_combout $end
$var wire 1 v$ UC|WRITE0|AND0~combout $end
$var wire 1 w$ RUN_STEP~input_o $end
$var wire 1 x$ FD0|FFD23~0_combout $end
$var wire 1 y$ FD0|FFD23~q $end
$var wire 1 z$ RSM0|MUX0|OR~combout $end
$var wire 1 {$ RSM0|MUX0|OR~clkctrl_outclk $end
$var wire 1 |$ ULA0|Z|inst~1_combout $end
$var wire 1 }$ ULA0|Z|inst~0_combout $end
$var wire 1 ~$ ULA0|Z|inst~combout $end
$var wire 1 !% NZ|FF1~q $end
$var wire 1 "% REM|MUX6|OR~0_combout $end
$var wire 1 #% REM|FF6~q $end
$var wire 1 $% RI|FF3~feeder_combout $end
$var wire 1 %% RI|FF3~q $end
$var wire 1 &% RI|FF2~feeder_combout $end
$var wire 1 '% RI|FF2~q $end
$var wire 1 (% RI|FF1~q $end
$var wire 1 )% RI|FF0~feeder_combout $end
$var wire 1 *% RI|FF0~q $end
$var wire 1 +% TEMP|DECOD0|AND0~3_combout $end
$upscope $end
$upscope $end
$enddefinitions $end
#0
$dumpvars
x!
0"
1#
0$
x%
x&
x'
x(
x)
x*
x+
x,
x-
x.
x/
x0
x1
x2
x:
x9
x8
x7
x6
x5
x4
x3
xB
xA
x@
x?
x>
x=
x<
x;
xC
xD
xE
xF
xG
xH
xP
xO
xN
xM
xL
xK
xJ
xI
xQ
xR
xS
xT
xU
xV
xW
xX
xY
xZ
x[
x\
x]
x^
x_
x`
xa
xb
xj
xi
xh
xg
xf
xe
xd
xc
xk
xs
xr
xq
xp
xo
xn
xm
xl
xt
x|
x{
xz
xy
xx
xw
xv
xu
x}
x~
x!!
x"!
x#!
x$!
x%!
x&!
0'!
1(!
x)!
1*!
1+!
1,!
x-!
x.!
x/!
x0!
x1!
x2!
x3!
04!
05!
06!
07!
08!
09!
0:!
0;!
0<!
0=!
0>!
0?!
0@!
0A!
0B!
0C!
0D!
0E!
0F!
0G!
0H!
0I!
0J!
xK!
xL!
xM!
xN!
xO!
xP!
xQ!
xR!
xS!
xT!
xU!
xV!
xW!
xX!
xY!
xZ!
x[!
x\!
x]!
x^!
x_!
x`!
xa!
xb!
0c!
xd!
xe!
xf!
xg!
xh!
xi!
xj!
xk!
xl!
xm!
xn!
xo!
xp!
xq!
xr!
xs!
xt!
xu!
xv!
xw!
xx!
xy!
xz!
x{!
x|!
x}!
x~!
x!"
x""
x#"
x$"
x%"
x&"
x'"
x("
x)"
x*"
x+"
x,"
x-"
x."
x/"
x0"
x1"
x2"
x3"
x4"
x5"
x6"
x7"
x8"
x9"
x:"
x;"
x<"
x="
x>"
x?"
x@"
xA"
xB"
xC"
xD"
xE"
xF"
xG"
xH"
xI"
xJ"
xK"
xL"
xM"
xN"
xO"
xP"
xQ"
xR"
xS"
xT"
xU"
xV"
xW"
xX"
xY"
xZ"
x["
x\"
x]"
x^"
x_"
x`"
xa"
xb"
xc"
xd"
xe"
xf"
xg"
xh"
xi"
xj"
xk"
xl"
xm"
xn"
xo"
xp"
xq"
xr"
xs"
xt"
xu"
xv"
xw"
0x"
xy"
xz"
x{"
x|"
0}"
x~"
x!#
x"#
x##
x$#
x%#
x&#
x'#
x(#
0)#
x*#
x+#
0,#
x-#
0.#
x/#
x0#
x1#
x2#
x3#
x4#
05#
x6#
07#
x8#
x9#
x:#
x;#
x<#
x=#
x>#
x?#
x@#
0A#
xB#
0C#
xD#
0E#
xF#
xG#
0H#
xI#
xJ#
xK#
0L#
xM#
0N#
xO#
xP#
0Q#
xR#
0S#
xT#
0U#
xV#
xW#
xX#
xY#
xZ#
0[#
x\#
x]#
x^#
x_#
x`#
xa#
xb#
0c#
xd#
0e#
xf#
0g#
xh#
xi#
xj#
xk#
0l#
xm#
0n#
xo#
xp#
0q#
0r#
xs#
xt#
xu#
xv#
xw#
xx#
xy#
xz#
x{#
x|#
0}#
x~#
x!$
0"$
0#$
x$$
x%$
x&$
x'$
x($
x)$
0*$
x+$
x,$
x-$
0.$
0/$
x0$
01$
02$
x3$
x4$
05$
06$
x7$
x8$
09$
x:$
x;$
x<$
x=$
x>$
0?$
x@$
xA$
0B$
xC$
xD$
xE$
xF$
0G$
xH$
xI$
xJ$
xK$
xL$
0M$
xN$
xO$
xP$
xQ$
xR$
xS$
xT$
xU$
xV$
xW$
xX$
xY$
0Z$
x[$
x\$
x]$
x^$
x_$
x`$
xa$
xb$
xc$
0d$
xe$
xf$
xg$
xh$
xi$
xj$
xk$
xl$
xm$
0n$
xo$
xp$
xq$
xr$
xs$
xt$
xu$
xv$
1w$
1x$
0y$
xz$
x{$
x|$
x}$
x~$
0!%
x"%
0#%
x$%
0%%
x&%
0'%
0(%
x)%
0*%
x+%
$end
#447
0:$
#524
0F#
#554
1U!
1Y!
#556
1a!
#558
1O!
1Q!
1[!
#559
1_!
#568
1]!
#569
0^#
#570
1W!
#571
1M!
1S!
#582
0K$
#588
0z"
#612
0J#
#628
1u$
#688
1T!
#690
0~"
#691
0t"
#707
1?#
#710
0v#
#715
1N!
1V!
1Z!
#716
1L!
#717
1R!
1\!
#723
0\#
0$$
#726
0>#
#740
0r"
#744
0##
#763
0N$
#765
0l$
#767
0$#
#785
03!
#788
0s#
0f$
#795
0g$
#797
0%#
#798
0p$
#804
0\$
#812
0q$
#819
00!
#820
1k$
#823
0+%
#836
0b$
#843
00$
#851
07$
#852
0+#
#853
1P!
#855
1X!
1^!
#871
1/#
#876
1`!
#883
0/!
#886
08#
#907
0s"
#915
0:#
#924
0J$
0`#
#949
0O$
#971
0I$
#972
0q"
#979
02#
#983
0f#
#985
1"#
#992
0i$
#994
0h$
#1000
0w#
0I#
#1001
0e$
0j$
#1009
1m!
#1010
0~#
#1014
1u#
#1024
0h#
#1025
0y"
#1031
0y#
#1041
0)%
#1055
0j#
#1058
0P$
#1068
0<$
#1074
0L$
#1078
0v$
#1109
0&%
#1111
0*#
#1112
0]#
#1124
0$%
#1126
0O#
#1131
0R#
#1140
0"%
#1166
1%$
#1167
0r$
#1169
03$
#1171
0Y#
#1172
0t$
#1173
0-!
0z#
#1175
0s$
#1180
0]$
#1181
0_#
0t#
#1183
0;$
#1184
0x#
0`$
#1201
0V$
#1237
0X#
#1244
1b!
#1248
0u"
#1253
0V#
#1257
0o#
#1270
1j!
1i!
#1271
1f!
#1273
1k!
1e!
#1274
1h!
#1303
0.!
#1315
19#
#1316
10#
#1332
0o$
#1340
0D#
18$
#1345
02!
#1376
0!#
#1379
0m$
#1387
06#
#1389
0-#
0c$
#1392
01!
#1424
0H$
#1437
0K#
#1442
0S$
#1447
0R$
#1450
1{"
#1457
0T$
#1459
0Q$
#1472
1K!
#1478
1U$
#1482
1+$
#1494
0&#
#1513
0G#
0W$
#1538
0M#
#1554
1g!
#1556
1l!
#1575
1n!
#1585
0w"
#1672
0!$
#1700
0;#
#1726
0C$
#1764
1k#
#1779
0i#
#1813
0'#
#1815
0T#
#1824
1(#
#1829
0&$
#1843
0B#
#1853
0^$
#1854
0[$
