lab03/projeto/simulation/qsim/ULA4bits.msim.vcd
$comment
	File created using the following command:
		vcd file ULA4bits.msim.vcd -direction
$end
$date
	Wed Nov 15 23:32:28 2023
$end
$version
	ModelSim Version 10.1d
$end
$timescale
	1ps
$end
$scope module ULA4bits_vlg_vec_tst $end
$var reg 4 ! A [3:0] $end
$var reg 4 " B [3:0] $end
$var reg 2 # op_sel [1:0] $end
$var wire 1 $ FLAG_N $end
$var wire 1 % FLAG_Z $end
$var wire 1 & S [3] $end
$var wire 1 ' S [2] $end
$var wire 1 ( S [1] $end
$var wire 1 ) S [0] $end
$var wire 1 * sampler $end
$scope module i1 $end
$var wire 1 + gnd $end
$var wire 1 , vcc $end
$var wire 1 - unknown $end
$var tri1 1 . devclrn $end
$var tri1 1 / devpor $end
$var tri1 1 0 devoe $end
$var wire 1 1 inst9|inst4|inst1~2_combout $end
$var wire 1 2 inst9|inst3|inst1~3_combout $end
$var wire 1 3 B[3]~input_o $end
$var wire 1 4 A[3]~input_o $end
$var wire 1 5 FLAG_Z~output_o $end
$var wire 1 6 FLAG_N~output_o $end
$var wire 1 7 S[3]~output_o $end
$var wire 1 8 S[2]~output_o $end
$var wire 1 9 S[1]~output_o $end
$var wire 1 : S[0]~output_o $end
$var wire 1 ; op_sel[0]~input_o $end
$var wire 1 < op_sel[1]~input_o $end
$var wire 1 = B[2]~input_o $end
$var wire 1 > A[2]~input_o $end
$var wire 1 ? B[1]~input_o $end
$var wire 1 @ A[1]~input_o $end
$var wire 1 A A[0]~input_o $end
$var wire 1 B inst|inst2|inst6~0_combout $end
$var wire 1 C inst9|inst3|inst1~2_combout $end
$var wire 1 D inst9|inst3|inst1~4_combout $end
$var wire 1 E inst9|inst4|inst1~3_combout $end
$var wire 1 F inst9|inst2|inst1~1_combout $end
$var wire 1 G inst9|inst2|inst1~0_combout $end
$var wire 1 H B[0]~input_o $end
$var wire 1 I inst9|inst2|inst1~2_combout $end
$var wire 1 J inst9|inst|inst1~0_combout $end
$var wire 1 K inst1~0_combout $end
$upscope $end
$upscope $end
$enddefinitions $end
#0
$dumpvars
b100 !
b100 "
b0 #
1$
0%
0)
0(
0'
1&
x*
0+
1,
x-
1.
1/
10
01
02
03
04
05
16
17
08
09
0:
0;
0<
1=
1>
0?
0@
0A
0B
1C
1D
0E
0F
0G
0H
0I
0J
1K
$end
#60000
b1100 !
b1000 !
b1100 "
b1000 "
0=
13
0>
14
0*
0C
0D
0K
07
06
0&
0$
15
1%
#120000
b1010 !
b1011 !
b1 #
b1111 !
1;
1A
1@
1>
1*
1F
12
1D
1K
17
16
1&
1$
05
0%
#180000
b111 !
b101 !
b100 !
b0 !
0A
0@
0>
04
0*
02
0D
0K
07
06
0&
0$
15
1%
#240000
b11 #
b10 #
0;
1<
1*
12
1D
1K
17
16
1&
1$
05
0%
#300000
b1000 !
b1010 !
b1011 !
b1111 !
1A
1@
1>
14
0*
1G
11
1J
1:
1)
1I
1E
19
18
1(
1'
#360000
b0 "
b11 #
1;
03
1*
0G
02
01
0J
0:
0)
0I
0D
0E
0K
09
07
06
08
0(
0&
0$
0'
15
1%
#420000
b1 #
b111 !
b101 !
b100 !
b0 !
b0 #
0A
0@
0>
04
0;
0<
0*
0F
