lab06/Projeto/simulation/qsim/CONT_UP_DOWN.msim.vcd
$comment
	File created using the following command:
		vcd file CONT_UP_DOWN.msim.vcd -direction
$end
$date
	Mon Dec 18 21:42:08 2023
$end
$version
	ModelSim Version 10.1d
$end
$timescale
	1ps
$end
$scope module CONT_UP_DOWN_vlg_vec_tst $end
$var reg 8 ! C_IN [7:0] $end
$var reg 1 " CLK_IN $end
$var reg 1 # CLK_S $end
$var reg 2 $ OP [1:0] $end
$var reg 1 % RES $end
$var wire 1 & A0 $end
$var wire 1 ' A1 $end
$var wire 1 ( B0 $end
$var wire 1 ) B1 $end
$var wire 1 * C0 $end
$var wire 1 + C1 $end
$var wire 1 , D0 $end
$var wire 1 - D1 $end
$var wire 1 . E0 $end
$var wire 1 / E1 $end
$var wire 1 0 F0 $end
$var wire 1 1 F1 $end
$var wire 1 2 G0 $end
$var wire 1 3 G1 $end
$var wire 1 4 sampler $end
$scope module i1 $end
$var wire 1 5 gnd $end
$var wire 1 6 vcc $end
$var wire 1 7 unknown $end
$var tri1 1 8 devclrn $end
$var tri1 1 9 devpor $end
$var tri1 1 : devoe $end
$var wire 1 ; COUNTER0|MUX4|MUX2|OR~0_combout $end
$var wire 1 < FD0|FFD23~q $end
$var wire 1 = MUX0|OR~combout $end
$var wire 1 > FD0|FFD22~q $end
$var wire 1 ? FD0|FFD21~q $end
$var wire 1 @ FD0|FFD20~q $end
$var wire 1 A FD0|FFD19~q $end
$var wire 1 B FD0|FFD18~q $end
$var wire 1 C FD0|FFD17~q $end
$var wire 1 D FD0|FFD16~q $end
$var wire 1 E FD0|FFD15~q $end
$var wire 1 F FD0|FFD14~q $end
$var wire 1 G FD0|FFD13~q $end
$var wire 1 H FD0|FFD12~q $end
$var wire 1 I FD0|FFD11~q $end
$var wire 1 J FD0|FFD10~q $end
$var wire 1 K FD0|FFD9~q $end
$var wire 1 L FD0|FFD8~q $end
$var wire 1 M FD0|FFD7~q $end
$var wire 1 N FD0|FFD6~q $end
$var wire 1 O FD0|FFD5~q $end
$var wire 1 P FD0|FFD4~q $end
$var wire 1 Q FD0|FFD3~q $end
$var wire 1 R FD0|FFD2~q $end
$var wire 1 S FD0|FFD1~q $end
$var wire 1 T FD0|FFD0~q $end
$var wire 1 U FD0|FFD23~0_combout $end
$var wire 1 V FD0|FFD22~0_combout $end
$var wire 1 W FD0|FFD21~0_combout $end
$var wire 1 X FD0|FFD20~0_combout $end
$var wire 1 Y FD0|FFD19~0_combout $end
$var wire 1 Z FD0|FFD18~0_combout $end
$var wire 1 [ FD0|FFD17~0_combout $end
$var wire 1 \ FD0|FFD16~0_combout $end
$var wire 1 ] FD0|FFD15~0_combout $end
$var wire 1 ^ FD0|FFD14~0_combout $end
$var wire 1 _ FD0|FFD13~0_combout $end
$var wire 1 ` FD0|FFD12~0_combout $end
$var wire 1 a FD0|FFD11~0_combout $end
$var wire 1 b FD0|FFD10~0_combout $end
$var wire 1 c FD0|FFD9~0_combout $end
$var wire 1 d FD0|FFD8~0_combout $end
$var wire 1 e FD0|FFD7~0_combout $end
$var wire 1 f FD0|FFD6~0_combout $end
$var wire 1 g FD0|FFD5~0_combout $end
$var wire 1 h FD0|FFD4~0_combout $end
$var wire 1 i FD0|FFD3~0_combout $end
$var wire 1 j FD0|FFD2~0_combout $end
$var wire 1 k FD0|FFD1~0_combout $end
$var wire 1 l FD0|FFD0~0_combout $end
$var wire 1 m C_IN[7]~input_o $end
$var wire 1 n C_IN[5]~input_o $end
$var wire 1 o C_IN[6]~input_o $end
$var wire 1 p C_IN[4]~input_o $end
$var wire 1 q CLK_IN~input_o $end
$var wire 1 r CLK_S~input_o $end
$var wire 1 s MUX0|OR~clkctrl_outclk $end
$var wire 1 t FD0|FFD22~feeder_combout $end
$var wire 1 u FD0|FFD20~feeder_combout $end
$var wire 1 v FD0|FFD18~feeder_combout $end
$var wire 1 w FD0|FFD16~feeder_combout $end
$var wire 1 x FD0|FFD12~feeder_combout $end
$var wire 1 y FD0|FFD10~feeder_combout $end
$var wire 1 z FD0|FFD8~feeder_combout $end
$var wire 1 { FD0|FFD6~feeder_combout $end
$var wire 1 | FD0|FFD4~feeder_combout $end
$var wire 1 } FD0|FFD3~feeder_combout $end
$var wire 1 ~ FD0|FFD1~feeder_combout $end
$var wire 1 !! FD0|FFD0~feeder_combout $end
$var wire 1 "! A0~output_o $end
$var wire 1 #! B0~output_o $end
$var wire 1 $! C0~output_o $end
$var wire 1 %! D0~output_o $end
$var wire 1 &! E0~output_o $end
$var wire 1 '! F0~output_o $end
$var wire 1 (! G0~output_o $end
$var wire 1 )! B1~output_o $end
$var wire 1 *! C1~output_o $end
$var wire 1 +! D1~output_o $end
$var wire 1 ,! E1~output_o $end
$var wire 1 -! F1~output_o $end
$var wire 1 .! G1~output_o $end
$var wire 1 /! A1~output_o $end
$var wire 1 0! C_IN[0]~input_o $end
$var wire 1 1! OP[1]~input_o $end
$var wire 1 2! COUNTER0|MUX0|MUX2|OR~0_combout $end
$var wire 1 3! RES~input_o $end
$var wire 1 4! OP[0]~input_o $end
$var wire 1 5! COUNTER0|FF0~0_combout $end
$var wire 1 6! COUNTER0|FF0~q $end
$var wire 1 7! C_IN[1]~input_o $end
$var wire 1 8! COUNTER0|MUX1|MUX2|OR~0_combout $end
$var wire 1 9! COUNTER0|MUX1|MUX2|OR~1_combout $end
$var wire 1 :! COUNTER0|FF1~q $end
$var wire 1 ;! C_IN[2]~input_o $end
$var wire 1 <! COUNTER0|MUX2|MUX2|OR~0_combout $end
$var wire 1 =! COUNTER0|MUX2|MUX2|OR~1_combout $end
$var wire 1 >! COUNTER0|FF2~q $end
$var wire 1 ?! COUNTER0|MUX3|MUX2|OR~0_combout $end
$var wire 1 @! C_IN[3]~input_o $end
$var wire 1 A! COUNTER0|MUX3|MUX2|OR~1_combout $end
$var wire 1 B! COUNTER0|FF3~q $end
$var wire 1 C! DECOD0|OUT_A|OR~0_combout $end
$var wire 1 D! DECOD0|inst|OR~0_combout $end
$var wire 1 E! DECOD0|OUT_C|OR~0_combout $end
$var wire 1 F! DECOD0|OUT_D|OR~0_combout $end
$var wire 1 G! DECOD0|OUT_E|OR~0_combout $end
$var wire 1 H! DECOD0|OUT_F|OR~0_combout $end
$var wire 1 I! DECOD0|OUT_G|OR~0_combout $end
$var wire 1 J! COUNTER0|OR3~0_combout $end
$var wire 1 K! COUNTER0|OR3~1_combout $end
$var wire 1 L! COUNTER0|MUX4|MUX2|OR~1_combout $end
$var wire 1 M! COUNTER0|MUX4|MUX2|OR~2_combout $end
$var wire 1 N! COUNTER0|AND3~0_combout $end
$var wire 1 O! COUNTER0|MUX4|MUX2|OR~3_combout $end
$var wire 1 P! COUNTER0|MUX4|MUX2|OR~4_combout $end
$var wire 1 Q! COUNTER0|FF4~q $end
$var wire 1 R! COUNTER0|MUX6|MUX2|OR~1_combout $end
$var wire 1 S! COUNTER0|MUX6|MUX2|OR~0_combout $end
$var wire 1 T! COUNTER0|AND3~combout $end
$var wire 1 U! COUNTER0|MUX5|MUX2|OR~0_combout $end
$var wire 1 V! COUNTER0|MUX5|MUX2|OR~1_combout $end
$var wire 1 W! COUNTER0|FF5~q $end
$var wire 1 X! COUNTER0|MUX6|MUX2|OR~2_combout $end
$var wire 1 Y! COUNTER0|MUX6|MUX2|OR~3_combout $end
$var wire 1 Z! COUNTER0|MUX6|MUX2|OR~4_combout $end
$var wire 1 [! COUNTER0|FF6~q $end
$var wire 1 \! COUNTER0|MUX7|MUX2|OR~3_combout $end
$var wire 1 ]! COUNTER0|MUX7|MUX2|OR~0_combout $end
$var wire 1 ^! COUNTER0|MUX7|MUX2|OR~1_combout $end
$var wire 1 _! COUNTER0|MUX7|MUX2|OR~2_combout $end
$var wire 1 `! COUNTER0|MUX7|MUX2|OR~4_combout $end
$var wire 1 a! COUNTER0|FF7~q $end
$var wire 1 b! DECOD1|inst|OR~0_combout $end
$var wire 1 c! DECOD1|OUT_C|OR~0_combout $end
$var wire 1 d! DECOD1|OUT_D|OR~0_combout $end
$var wire 1 e! DECOD1|OUT_E|OR~0_combout $end
$var wire 1 f! DECOD1|OUT_F|OR~0_combout $end
$var wire 1 g! DECOD1|OUT_G|OR~0_combout $end
$var wire 1 h! DECOD1|OUT_A|OR~0_combout $end
$upscope $end
$upscope $end
$enddefinitions $end
#0
$dumpvars
b1000 !
0"
1#
b0 $
0%
x&
x'
x(
x)
x*
x+
x,
x-
x.
x/
x0
x1
x2
x3
x4
05
16
x7
18
19
1:
x;
0<
x=
0>
0?
0@
0A
0B
0C
0D
0E
0F
0G
0H
0I
0J
0K
0L
0M
0N
0O
0P
0Q
0R
0S
0T
1U
xV
xW
xX
xY
xZ
x[
x\
x]
x^
x_
x`
xa
xb
xc
xd
xe
xf
xg
xh
xi
xj
xk
xl
0m
0n
0o
0p
0q
1r
xs
xt
xu
xv
xw
xx
xy
xz
x{
x|
x}
x~
x!!
x"!
x#!
x$!
x%!
x&!
x'!
x(!
x)!
x*!
x+!
x,!
x-!
x.!
x/!
00!
01!
x2!
03!
04!
x5!
06!
07!
x8!
x9!
0:!
0;!
x<!
x=!
0>!
x?!
1@!
xA!
0B!
xC!
xD!
xE!
xF!
xG!
xH!
xI!
xJ!
xK!
xL!
xM!
xN!
xO!
xP!
0Q!
xR!
xS!
xT!
xU!
xV!
0W!
xX!
xY!
xZ!
0[!
x\!
x]!
x^!
x_!
x`!
0a!
xb!
xc!
xd!
xe!
xf!
xg!
xh!
$end
#458
0N!
#554
1_
#558
1Y
1c
1g
1j
#568
1]
1a
#573
0L!
#596
0S!
#597
1T!
#671
1i
#684
1^
#714
1Z
1h
#715
1`
#716
1V
#717
1X
1\
1k
#718
1f
#725
1J!
#728
1W
#732
1[
#733
1e
#764
1d
#855
1b
#891
0M!
#907
0c!
#936
0O!
#947
0H!
#949
0E!
#957
0G!
#961
0F!
#1065
1U!
#1108
0C!
#1111
1I!
#1178
0D!
#1179
1K!
#1196
0b!
#1198
0e!
#1201
1g!
#1202
0f!
#1230
0h!
#1231
0d!
#1257
1}
#1270
1x
1|
1v
#1273
1~
1t
#1274
1w
1u
#1275
1{
#1393
1z
#1396
0=
#1429
1l
#1558
1y
#2661
1!!
#2772
0s
#3133
08!
#3192
0Z!
#3201
1A!
#3210
0=!
#3289
0;
#3361
15!
#3421
02!
#3430
0*!
0+
#3452
09!
#3527
0R!
#3532
0_!
#3561
1X!
#3567
1]!
#3569
0V!
#3619
1<!
#3626
1?!
#3630
0'!
00
#3691
0"!
0&
#3746
0/!
0'
#3755
0,!
0/
#3757
0)!
0)
#3776
1.!
13
#3788
0+!
0-
#3811
0&!
0.
#3816
0$!
0*
#3826
0%!
0,
#3845
1(!
12
#3854
0`!
#3872
0\!
#3885
0#!
0(
#3983
1^!
#4054
0-!
01
#4068
0P!
#4139
0Y!
#5000
1"
04
#5775
1q
#7212
1=
#7393
1T
#8493
1S
#8527
1s
#8771
0l
#9123
0k
#9480
1R
#9735
0~
#9961
0j
#10000
0"
14
#10006
0!!
#10652
1Q
#10936
0q
#11261
0i
#11751
1P
#11868
0}
#12332
0=
#12380
0h
#12738
1O
#12994
0|
#13219
0g
#13708
0s
#13873
1N
#14505
0f
#14861
1M
#15000
1"
04
#15120
0{
#15509
0e
#15775
1q
#16274
1L
#16976
0d
#17212
1=
#17274
1K
#17393
0T
#17611
0z
#17755
0c
#18527
1s
#18655
1J
#18822
1l
#19445
0b
#19655
1I
#20000
0"
14
#20054
1!!
#20157
0a
#20191
0y
#20788
1H
#20936
0q
#21418
0`
#21775
1G
#22027
0x
#22253
0_
#22332
0=
#23155
1F
#23708
0s
#23772
0^
#24155
1E
#24655
0]
#25000
1"
04
#25296
1D
#25775
1q
#25926
0\
#26284
1C
#26540
0w
#26931
0[
#27212
1=
#27393
1T
#27396
1B
#28025
0Z
#28383
1A
#28493
0S
#28527
1s
#28639
0v
#28771
0l
#28864
0Y
#29210
1k
#29518
1@
#29766
1~
#30000
1%
0"
14
#30006
0!!
#30148
0X
#30506
1?
#30755
13!
#30762
0u
#30936
0q
#31151
0W
#31654
1>
#32284
0V
#32332
0=
#32641
1<
#32898
0t
#33010
0U
#33708
0s
#35000
1"
04
#35775
1q
#37212
1=
#37393
0T
#38527
1s
#38822
1l
#40000
0"
14
#40054
1!!
#40197
1B!
#40845
0J!
#40936
0q
#41006
0I!
#41308
0K!
#42332
0=
#43708
0s
#43713
0(!
02
#45000
1"
04
#45775
1q
#47212
1=
#47393
1T
#48493
1S
#48527
1s
#48771
0l
#49123
0k
#49480
0R
#49735
0~
#50000
0"
14
#50006
0!!
#50038
1j
#50936
0q
#52332
0=
#53708
0s
#55000
1"
04
#55775
1q
#57212
1=
#57393
0T
#58527
1s
#58822
1l
#60000
0"
14
#60054
1!!
#60936
0q
#62332
0=
#63708
0s
#65000
1"
04
#65775
1q
#67212
1=
#67393
1T
#68493
0S
#68527
1s
#68771
0l
#69210
1k
#69766
1~
#70000
0"
14
#70006
0!!
#70936
0q
#72332
0=
#73708
0s
#75000
1"
04
#75775
1q
#77212
1=
#77393
0T
#78527
1s
#78822
1l
#80000
0"
14
#80054
1!!
#80936
0q
#82332
0=
#83708
0s
#85000
1"
04
#85775
1q
#87212
1=
#87393
1T
#88493
1S
#88527
1s
#88771
0l
#89123
0k
#89480
1R
#89735
0~
#89961
0j
#90000
0"
14
#90006
0!!
#90652
0Q
#90936
0q
#91323
1i
#91909
1}
#92332
0=
#93708
0s
#95000
1"
04
#95775
1q
#97212
1=
#97393
0T
#98527
1s
#98822
1l
#100000
b10 $
0"
14
#100054
1!!
#100775
11!
#100936
0q
#102332
0=
#103448
12!
#103708
0s
#105000
1"
04
#105775
1q
#107212
1=
#107393
1T
#108493
0S
#108527
1s
#108771
0l
#109210
1k
#109766
1~
#110000
0"
14
#110006
0!!
#110197
16!
#110566
02!
#110936
0q
#111030
18!
1G!
#111334
19!
#112332
0=
#113708
0s
#113870
1&!
1.
#115000
1"
04
#115775
1q
#117212
1=
#117393
0T
#118527
1s
#118822
1l
#120000
0"
14
#120054
1!!
#120197
06!
1:!
#120550
12!
#120724
1L!
#120936
0q
#121081
1F!
#121137
0G!
#122332
0=
#123708
0s
#123931
1%!
1,
#123991
0&!
0.
#125000
1"
04
#125775
1q
#127212
1=
#127393
1T
#128493
1S
#128527
1s
#128771
0l
#129123
0k
#129480
0R
#129735
0~
#130000
0"
14
#130006
0!!
#130038
1j
#130197
16!
#130566
02!
#130882
0<!
#130936
0q
#131042
08!
#131043
0F!
#131215
1=!
#131293
1C!
#131299
1D!
#131361
09!
#132332
0=
#133708
0s
#133882
1"!
1&
#133908
0%!
0,
#134076
1#!
1(
#135000
1"
04
#135775
1q
#137212
1=
#137393
0T
#138527
1s
#138822
1l
#140000
0"
14
#140054
1!!
#140197
06!
0:!
1>!
#140550
12!
#140770
0L!
#140936
0q
#140969
1<!
#141113
0<!
#141121
1E!
#141266
1I!
#141374
0C!
#142332
0=
#143708
0s
#143957
0"!
0&
#143990
1$!
1*
#144000
1(!
12
#145000
1"
04
#145775
1q
#147212
1=
#147393
1T
#148493
0S
#148527
1s
#148771
0l
#149210
1k
#149766
1~
#150000
0"
14
#150006
0!!
#150197
16!
#150566
02!
#150936
0q
#151009
0E!
#151027
1H!
#151030
18!
#151290
0I!
#151293
1C!
#151311
0D!
#151334
19!
#152332
0=
#153708
0s
#153730
1'!
10
#153876
0$!
0*
#153882
1"!
1&
#153997
0(!
02
#154018
0#!
0(
#155000
1"
04
#155775
1q
#157212
1=
#157393
0T
#158527
1s
#158822
1l
#160000
0"
14
#160054
1!!
#160197
06!
1:!
#160550
12!
#160724
1L!
#160936
0q
#161104
1E!
#161115
0H!
#161289
1D!
#161305
0C!
#162332
0=
#163708
0s
#163798
0'!
00
#163888
0"!
0&
#163973
1$!
1*
#164066
1#!
1(
#165000
1"
04
#165775
1q
#167212
1=
#167393
1T
#168493
1S
#168527
1s
#168771
0l
#169123
0k
#169480
1R
#169735
0~
#169961
0j
#170000
0"
14
#170006
0!!
#170197
16!
#170566
02!
#170652
1Q
#170769
1N!
#170883
1<!
#170885
0?!
#170886
1M!
#170936
0q
#171031
1F!
#171042
08!
#171180
0=!
#171237
1O!
#171261
0i
#171361
09!
#171542
1P!
#171640
0A!
#171751
0P
#171868
0}
#172332
0=
#172465
1h
#173021
1|
#173708
0s
#173881
1%!
1,
#175000
1"
04
#175775
1q
#177212
1=
#177393
0T
#178527
1s
#178822
1l
#180000
0"
14
#180054
1!!
#180197
06!
0:!
0>!
0B!
1Q!
#180550
1A!
12!
#180655
0N!
#180705
0T!
#180779
0L!
#180922
1J!
#180936
0q
#180958
0O!
#180968
0<!
#180974
1?!
#181066
0E!
#181090
0M!
#181138
1T!
#181158
0F!
#181174
1<!
#181181
0U!
#181278
0P!
#181301
1=!
#181308
1I!
#181322
1e!
#181324
1f!
#181343
1h!
#181349
1d!
#181375
0D!
#181471
0=!
#181509
1V!
#181606
1U!
#181662
1O!
#181703
0A!
#181899
0V!
#181967
1P!
#182332
0=
#183708
0s
#183915
1/!
1'
#183933
1,!
0$!
1/
0*
#183958
1+!
1-
#184023
0%!
0,
#184042
1(!
12
#184082
0#!
0(
#184180
1-!
11
#185000
1"
04
#185775
1q
#187212
1=
#187393
1T
#188493
0S
#188527
1s
#188771
0l
#189210
1k
#189766
1~
#190000
0"
14
#190006
0!!
#190197
16!
#190566
02!
#190837
0J!
#190936
0q
#191027
1H!
#191030
18!
1G!
#191031
1F!
#191293
1C!
#191334
19!
#192332
0=
#193708
0s
#193730
1'!
10
#193870
1&!
1.
#193881
1%!
1,
#193882
1"!
1&
#195000
1"
04
#195775
1q
#197212
1=
#197393
0T
#198527
1s
#198822
1l
#200000
0"
14
#200054
1!!
#200197
06!
1:!
#200550
12!
#200936
0q
#201076
1E!
#201137
0G!
#201140
0F!
#201303
0I!
#201305
0C!
#202332
0=
#203708
0s
#203888
0"!
0&
#203945
1$!
1*
#203991
0&!
0.
#204005
0%!
0,
#204010
0(!
02
#205000
1"
04
#205775
1q
#207212
1=
#207393
1T
#208493
1S
#208527
1s
#208771
0l
#209123
0k
#209480
0R
#209735
0~
#210000
0"
14
#210006
0!!
#210038
1j
#210197
16!
#210566
02!
#210882
0<!
#210936
0q
#211009
0E!
#211030
1G!
#211042
08!
#211215
1=!
#211361
09!
#212332
0=
#213708
0s
#213870
1&!
1.
#213876
0$!
0*
#215000
1"
04
#215775
1q
#217212
1=
#217393
0T
#218527
1s
#218822
1l
#220000
0"
14
#220054
1!!
#220197
06!
0:!
1>!
#220550
12!
#220936
0q
#220969
1<!
#221113
0<!
#221116
1F!
#221144
0H!
#221262
1C!
#222332
0=
#223708
0s
#223827
0'!
00
#223851
1"!
1&
#223966
1%!
1,
#225000
1"
04
#225775
1q
#227212
1=
#227393
1T
#228493
0S
#228527
1s
#228771
0l
#229210
1k
#229766
1~
#230000
0"
14
#230006
0!!
#230197
16!
#230566
02!
#230936
0q
#231030
18!
#231043
0F!
#231288
0C!
#231299
1D!
#231334
19!
#232332
0=
#233708
0s
#233871
0"!
0&
#233908
0%!
0,
#234076
1#!
1(
#235000
1"
04
#235775
1q
#237212
1=
#237393
0T
#238527
1s
#238822
1l
#240000
0"
14
#240054
1!!
#240197
06!
1:!
#240550
12!
#240936
0q
#241083
0G!
#242332
0=
#243708
0s
#243937
0&!
0.
#245000
1"
04
#245775
1q
#247212
1=
#247393
1T
#248493
1S
#248527
1s
#248771
0l
#249123
0k
#249480
1R
#249735
0~
#249961
0j
#250000
0"
14
#250006
0!!
#250197
16!
#250566
02!
#250652
0Q
#250883
1<!
#250885
0?!
#250936
0q
#251027
1H!
#251030
1G!
#251031
1F!
#251042
08!
#251180
0=!
#251270
1I!
#251311
0D!
#251323
1i
#251361
09!
#251641
1A!
#251909
1}
#252332
0=
#253708
0s
#253730
1'!
10
#253870
1&!
1.
#253881
1%!
1,
#254004
1(!
12
#254018
0#!
0(
#255000
1"
04
#255775
1q
#257212
1=
#257393
0T
#258527
1s
#258822
1l
#260000
0"
14
#260054
1!!
#260197
06!
0:!
0>!
1B!
#260550
12!
#260566
0A!
#260936
0q
#260968
0<!
#260974
1E!
1?!
#261006
0I!
#261014
0G!
#261016
0H!
#261140
0F!
#261161
0E!
#261174
1<!
#261301
1=!
#261471
0=!
#261704
1A!
#262332
0=
#263699
0'!
00
#263708
0s
#263713
0(!
02
#263868
0&!
0.
#264005
0%!
0,
#265000
1"
04
#265775
1q
#267212
1=
#267393
1T
#268493
0S
#268527
1s
#268771
0l
#269210
1k
#269766
1~
#270000
0"
14
#270006
0!!
#270197
16!
#270566
02!
#270936
0q
#271030
18!
1G!
#271334
19!
#272332
0=
#273708
0s
#273870
1&!
1.
#275000
1"
04
#275775
1q
#277212
1=
#277393
0T
#278527
1s
#278822
1l
#280000
0"
14
#280054
1!!
#280197
06!
1:!
#280550
12!
#280724
1L!
#280936
0q
#281081
1F!
#281137
0G!
#282332
0=
#283708
0s
#283931
1%!
1,
#283991
0&!
0.
#285000
1"
04
#285775
1q
#287212
1=
#287393
1T
#288493
1S
#288527
1s
#288771
0l
#289123
0k
#289480
0R
#289735
0~
#290000
0"
14
#290006
0!!
#290038
1j
#290197
16!
#290566
02!
#290882
0<!
#290936
0q
#291042
08!
#291043
0F!
#291215
1=!
#291293
1C!
#291299
1D!
#291361
09!
#292332
0=
#293708
0s
#293882
1"!
1&
#293908
0%!
0,
#294076
1#!
1(
#295000
1"
04
#295775
1q
#297212
1=
#297393
0T
#298527
1s
#298822
1l
#300000
0"
14
#300054
1!!
#300197
06!
0:!
1>!
#300550
12!
#300770
0L!
#300936
0q
#300969
1<!
#301113
0<!
#301121
1E!
#301266
1I!
#301374
0C!
#302332
0=
#303708
0s
#303957
0"!
0&
#303990
1$!
1*
#304000
1(!
12
#305000
1"
04
#305775
1q
#307212
1=
#307393
1T
#308493
0S
#308527
1s
#308771
0l
#309210
1k
#309766
1~
#310000
0"
14
#310006
0!!
#310197
16!
#310566
02!
#310936
0q
#311009
0E!
#311027
1H!
#311030
18!
#311290
0I!
#311293
1C!
#311311
0D!
#311334
19!
#312332
0=
#313708
0s
#313730
1'!
10
#313876
0$!
0*
#313882
1"!
1&
#313997
0(!
02
#314018
0#!
0(
#315000
1"
04
#315775
1q
#317212
1=
#317393
0T
#318527
1s
#318822
1l
#320000
0"
14
#320054
1!!
#320197
06!
1:!
#320550
12!
#320724
1L!
#320936
0q
#321104
1E!
#321115
0H!
#321289
1D!
#321305
0C!
#322332
0=
#323708
0s
#323798
0'!
00
#323888
0"!
0&
#323973
1$!
1*
#324066
1#!
1(
#325000
1"
04
#325775
1q
#327212
1=
#327393
1T
#328493
1S
#328527
1s
#328771
0l
#329123
0k
#329480
1R
#329735
0~
#329961
0j
#330000
0"
14
#330006
0!!
#330197
16!
#330566
02!
#330652
1Q
#330769
1N!
#330883
1<!
#330885
0?!
#330886
1M!
#330936
0q
#331031
1F!
#331042
08!
#331180
0=!
#331227
0T!
#331261
0i
#331361
09!
#331439
0O!
#331640
0A!
#331703
0U!
#331751
1P
#331759
0P!
#331868
0}
#332031
1V!
#332332
0=
#332380
0h
#332738
0O
#332994
0|
#333296
1g
#333708
0s
#333881
1%!
1,
#335000
1"
04
#335775
1q
#337212
1=
#337393
0T
#338527
1s
#338822
1l
#340000
b11 $
b1 $
0"
14
#340054
1!!
#340197
06!
0:!
0>!
0B!
0Q!
#340550
1A!
12!
#340560
1W!
#340655
0N!
#340735
14!
#340779
0L!
#340794
1T!
#340922
1J!
#340936
0q
01!
#340968
0<!
#340974
1?!
#341063
1U!
#341066
0E!
#341090
0M!
#341158
0F!
#341174
1<!
#341252
0U!
#341301
1=!
#341308
1I!
#341356
0V!
#341375
0D!
#341376
1K!
#341395
0e!
#341407
0g!
#341416
1c!
#341427
0h!
#341428
0d!
#341471
0=!
#341580
1V!
#341703
0A!
#342332
0=
#343708
0s
#343858
02!
#343933
0$!
0*
#343943
0/!
0'
#343952
0,!
0/
#343974
0.!
03
#343985
0+!
0-
#343995
1*!
1+
#344023
0%!
0,
#344042
1(!
12
#344060
1U!
#344082
0#!
0(
#344095
05!
#344122
0<!
#344126
0?!
#344134
0V!
#344137
1A!
#345000
1"
04
#345775
1q
#347212
1=
#347393
1T
#348493
0S
#348527
1s
#348771
0l
#349210
1k
#349766
1~
#350000
0"
14
#350006
0!!
#350936
0q
#352332
0=
#353708
0s
#355000
1"
04
#355775
1q
#357212
1=
#357393
0T
#358527
1s
#358822
1l
#360000
0"
14
#360054
1!!
#360936
0q
#362332
0=
#363708
0s
#365000
1"
04
#365775
1q
#367212
1=
#367393
1T
#368493
1S
#368527
1s
#368771
0l
#369123
0k
#369480
0R
#369735
0~
#370000
0"
14
#370006
0!!
#370038
1j
#370936
0q
#372332
0=
#373708
0s
#375000
1"
04
#375775
1q
#377212
1=
#377393
0T
#378527
1s
#378822
1l
#380000
0"
14
#380054
1!!
#380936
0q
#382332
0=
#383708
0s
#385000
1"
04
#385775
1q
#387212
1=
#387393
1T
#388493
0S
#388527
1s
#388771
0l
#389210
1k
#389766
1~
#390000
0"
14
#390006
0!!
#390936
0q
#392332
0=
#393708
0s
#395000
1"
04
#395775
1q
#397212
1=
#397393
0T
#398527
1s
#398822
1l
#400000
0"
14
#400054
1!!
#400936
0q
#402332
0=
#403708
0s
#405000
1"
04
#405775
1q
#407212
1=
#407393
1T
#408493
1S
#408527
1s
#408771
0l
#409123
0k
#409480
1R
#409735
0~
#409961
0j
#410000
0"
14
#410006
0!!
#410652
0Q
#410936
0q
#411323
1i
#411909
1}
#412332
0=
#413708
0s
#415000
1"
04
#415775
1q
#417212
1=
#417393
0T
#418527
1s
#418822
1l
#420000
0"
14
#420054
1!!
#420936
0q
#422332
0=
#423708
0s
#425000
1"
04
#425775
1q
#427212
1=
#427393
1T
#428493
0S
#428527
1s
#428771
0l
#429210
1k
#429766
1~
#430000
0"
14
#430006
0!!
#430936
0q
#432332
0=
#433708
0s
#435000
1"
04
#435775
1q
#437212
1=
#437393
0T
#438527
1s
#438822
1l
#440000
0"
14
#440054
1!!
#440936
0q
#442332
0=
#443708
0s
#445000
1"
04
#445775
1q
#447212
1=
#447393
1T
#448493
1S
#448527
1s
#448771
0l
#449123
0k
#449480
0R
#449735
0~
#450000
0"
14
#450006
0!!
#450038
1j
#450936
0q
#452332
0=
#453708
0s
#455000
1"
04
#455775
1q
#457212
1=
#457393
0T
#458527
1s
#458822
1l
#460000
0"
14
#460054
1!!
#460936
0q
#462332
0=
#463708
0s
#465000
1"
04
#465775
1q
#467212
1=
#467393
1T
#468493
0S
#468527
1s
#468771
0l
#469210
1k
#469766
1~
#470000
0"
14
#470006
0!!
#470936
0q
#472332
0=
#473708
0s
#475000
1"
04
#475775
1q
#477212
1=
#477393
0T
#478527
1s
#478822
1l
#480000
0"
14
#480054
1!!
#480936
0q
#482332
0=
#483708
0s
#485000
1"
04
#485775
1q
#487212
1=
#487393
1T
#488493
1S
#488527
1s
#488771
0l
#489123
0k
#489480
1R
#489735
0~
#489961
0j
#490000
0"
14
#490006
0!!
#490652
1Q
#490936
0q
#491261
0i
#491751
0P
#491868
0}
#492332
0=
#492465
1h
#493021
1|
#493708
0s
#495000
1"
04
#495775
1q
#497212
1=
#497393
0T
#498527
1s
#498822
1l
#500000
0"
14
#500054
1!!
#500936
0q
#502332
0=
#503708
0s
#505000
1"
04
#505775
1q
#507212
1=
#507393
1T
#508493
0S
#508527
1s
#508771
0l
#509210
1k
#509766
1~
#510000
0"
14
#510006
0!!
#510936
0q
#512332
0=
#513708
0s
#515000
1"
04
#515775
1q
#517212
1=
#517393
0T
#518527
1s
#518822
1l
#520000
0"
14
#520054
1!!
#520936
0q
#522332
0=
#523708
0s
#525000
1"
04
#525775
1q
#527212
1=
#527393
1T
#528493
1S
#528527
1s
#528771
0l
#529123
0k
#529480
0R
#529735
0~
#530000
0"
14
#530006
0!!
#530038
1j
#530936
0q
#532332
0=
#533708
0s
#535000
1"
04
#535775
1q
#537212
1=
#537393
0T
#538527
1s
#538822
1l
#540000
0"
14
#540054
1!!
#540936
0q
#542332
0=
#543708
0s
#545000
1"
04
#545775
1q
#547212
1=
#547393
1T
#548493
0S
#548527
1s
#548771
0l
#549210
1k
#549766
1~
#550000
0"
14
#550006
0!!
#550936
0q
#552332
0=
#553708
0s
#555000
1"
04
#555775
1q
#557212
1=
#557393
0T
#558527
1s
#558822
1l
#560000
0"
14
#560054
1!!
#560936
0q
#562332
0=
#563708
0s
#565000
1"
04
#565775
1q
#567212
1=
#567393
1T
#568493
1S
#568527
1s
#568771
0l
#569123
0k
#569480
1R
#569735
0~
#569961
0j
#570000
0"
14
#570006
0!!
#570652
0Q
#570936
0q
#571323
1i
#571909
1}
#572332
0=
#573708
0s
#575000
1"
04
#575775
1q
#577212
1=
#577393
0T
#578527
1s
#578822
1l
#580000
0"
14
#580054
1!!
#580936
0q
#582332
0=
#583708
0s
#585000
1"
04
#585775
1q
#587212
1=
#587393
1T
#588493
0S
#588527
1s
#588771
0l
#589210
1k
#589766
1~
#590000
0"
14
#590006
0!!
#590936
0q
#592332
0=
#593708
0s
#595000
1"
04
#595775
1q
#597212
1=
#597393
0T
#598527
1s
#598822
1l
#600000
b11 $
0"
14
#600054
1!!
#600775
11!
#600936
0q
#602332
0=
#603448
12!
#603619
18!
#603666
15!
#603694
1;
#603708
0s
#603710
1=!
#603923
19!
#604449
1P!
#605000
1"
04
#605775
1q
#607212
1=
#607393
1T
#608493
1S
#608527
1s
#608771
0l
#609123
0k
#609480
0R
#609735
0~
#610000
0"
14
#610006
0!!
#610038
1j
#610197
16!
1:!
1>!
1B!
1Q!
#610560
0W!
